%YAML 1.1
%TAG !u! tag:unity3d.com,2011:
--- !u!74 &7400000
AnimationClip:
  m_ObjectHideFlags: 0
  m_CorrespondingSourceObject: {fileID: 0}
  m_PrefabInstance: {fileID: 0}
  m_PrefabAsset: {fileID: 0}
  m_Name: New Animation
  serializedVersion: 6
  m_Legacy: 0
  m_Compressed: 0
  m_UseHighQualityCurve: 1
  m_RotationCurves: []
  m_CompressedRotationCurves: []
  m_EulerCurves: []
  m_PositionCurves: []
  m_ScaleCurves: []
  m_FloatCurves: []
  m_PPtrCurves:
  - curve:
    - time: 0
      value: {fileID: 7881124907226933619, guid: fc47350d2fbf0474d8a2863427d3a643, type: 3}
    - time: 0.1
      value: {fileID: 746264217699633146, guid: fc47350d2fbf0474d8a2863427d3a643, type: 3}
    - time: 0.2
      value: {fileID: -1789802844027288431, guid: fc47350d2fbf0474d8a2863427d3a643, type: 3}
    - time: 0.3
      value: {fileID: 6445938238500991507, guid: fc47350d2fbf0474d8a2863427d3a643, type: 3}
    - time: 0.4
      value: {fileID: -5789349685586394606, guid: fc47350d2fbf0474d8a2863427d3a643, type: 3}
    - time: 0.5
      value: {fileID: 4795846055562675599, guid: fc47350d2fbf0474d8a2863427d3a643, type: 3}
    - time: 0.6
      value: {fileID: -6811878262179064923, guid: fc47350d2fbf0474d8a2863427d3a643, type: 3}
    - time: 0.7
      value: {fileID: -8365443283793819032, guid: fc47350d2fbf0474d8a2863427d3a643, type: 3}
    - time: 0.8
      value: {fileID: -2847549614131130925, guid: fc47350d2fbf0474d8a2863427d3a643, type: 3}
    - time: 0.9
      value: {fileID: 2805416564059779363, guid: fc47350d2fbf0474d8a2863427d3a643, type: 3}
    - time: 1
      value: {fileID: 747464805641500156, guid: fc47350d2fbf0474d8a2863427d3a643, type: 3}
    - time: 1.1
      value: {fileID: 6364614224087973347, guid: fc47350d2fbf0474d8a2863427d3a643, type: 3}
    - time: 1.2
      value: {fileID: 6161485708030280192, guid: fc47350d2fbf0474d8a2863427d3a643, type: 3}
    - time: 1.3
      value: {fileID: 3196375116053062031, guid: fc47350d2fbf0474d8a2863427d3a643, type: 3}
    - time: 1.4
      value: {fileID: -6832799978555922056, guid: fc47350d2fbf0474d8a2863427d3a643, type: 3}
    - time: 1.5
      value: {fileID: 3972613996406875928, guid: fc47350d2fbf0474d8a2863427d3a643, type: 3}
    - time: 1.6
      value: {fileID: -5873320033009460380, guid: fc47350d2fbf0474d8a2863427d3a643, type: 3}
    - time: 1.7
      value: {fileID: 8512050979650275051, guid: fc47350d2fbf0474d8a2863427d3a643, type: 3}
    - time: 1.8
      value: {fileID: -1487948418867166390, guid: fc47350d2fbf0474d8a2863427d3a643, type: 3}
    - time: 1.9
      value: {fileID: 5988873313647054985, guid: fc47350d2fbf0474d8a2863427d3a643, type: 3}
    - time: 2
      value: {fileID: -9159597199412046432, guid: fc47350d2fbf0474d8a2863427d3a643, type: 3}
    - time: 2.1
      value: {fileID: 8310361954759186409, guid: fc47350d2fbf0474d8a2863427d3a643, type: 3}
    - time: 2.2
      value: {fileID: 3308915417334426556, guid: fc47350d2fbf0474d8a2863427d3a643, type: 3}
    - time: 2.3
      value: {fileID: -8310464171747111669, guid: fc47350d2fbf0474d8a2863427d3a643, type: 3}
    attribute: m_Sprite
    path: 
    classID: 114
    script: {fileID: 11500000, guid: fe87c0e1cc204ed48ad3b37840f39efc, type: 3}
  m_SampleRate: 100
  m_WrapMode: 0
  m_Bounds:
    m_Center: {x: 0, y: 0, z: 0}
    m_Extent: {x: 0, y: 0, z: 0}
  m_ClipBindingConstant:
    genericBindings:
    - serializedVersion: 2
      path: 0
      attribute: 2015549526
      script: {fileID: 11500000, guid: fe87c0e1cc204ed48ad3b37840f39efc, type: 3}
      typeID: 114
      customType: 0
      isPPtrCurve: 1
    pptrCurveMapping:
    - {fileID: 7881124907226933619, guid: fc47350d2fbf0474d8a2863427d3a643, type: 3}
    - {fileID: 746264217699633146, guid: fc47350d2fbf0474d8a2863427d3a643, type: 3}
    - {fileID: -1789802844027288431, guid: fc47350d2fbf0474d8a2863427d3a643, type: 3}
    - {fileID: 6445938238500991507, guid: fc47350d2fbf0474d8a2863427d3a643, type: 3}
    - {fileID: -5789349685586394606, guid: fc47350d2fbf0474d8a2863427d3a643, type: 3}
    - {fileID: 4795846055562675599, guid: fc47350d2fbf0474d8a2863427d3a643, type: 3}
    - {fileID: -6811878262179064923, guid: fc47350d2fbf0474d8a2863427d3a643, type: 3}
    - {fileID: -8365443283793819032, guid: fc47350d2fbf0474d8a2863427d3a643, type: 3}
    - {fileID: -2847549614131130925, guid: fc47350d2fbf0474d8a2863427d3a643, type: 3}
    - {fileID: 2805416564059779363, guid: fc47350d2fbf0474d8a2863427d3a643, type: 3}
    - {fileID: 747464805641500156, guid: fc47350d2fbf0474d8a2863427d3a643, type: 3}
    - {fileID: 6364614224087973347, guid: fc47350d2fbf0474d8a2863427d3a643, type: 3}
    - {fileID: 6161485708030280192, guid: fc47350d2fbf0474d8a2863427d3a643, type: 3}
    - {fileID: 3196375116053062031, guid: fc47350d2fbf0474d8a2863427d3a643, type: 3}
    - {fileID: -6832799978555922056, guid: fc47350d2fbf0474d8a2863427d3a643, type: 3}
    - {fileID: 3972613996406875928, guid: fc47350d2fbf0474d8a2863427d3a643, type: 3}
    - {fileID: -5873320033009460380, guid: fc47350d2fbf0474d8a2863427d3a643, type: 3}
    - {fileID: 8512050979650275051, guid: fc47350d2fbf0474d8a2863427d3a643, type: 3}
    - {fileID: -1487948418867166390, guid: fc47350d2fbf0474d8a2863427d3a643, type: 3}
    - {fileID: 5988873313647054985, guid: fc47350d2fbf0474d8a2863427d3a643, type: 3}
    - {fileID: -9159597199412046432, guid: fc47350d2fbf0474d8a2863427d3a643, type: 3}
    - {fileID: 8310361954759186409, guid: fc47350d2fbf0474d8a2863427d3a643, type: 3}
    - {fileID: 3308915417334426556, guid: fc47350d2fbf0474d8a2863427d3a643, type: 3}
    - {fileID: -8310464171747111669, guid: fc47350d2fbf0474d8a2863427d3a643, type: 3}
  m_AnimationClipSettings:
    serializedVersion: 2
    m_AdditiveReferencePoseClip: {fileID: 0}
    m_AdditiveReferencePoseTime: 0
    m_StartTime: 0
    m_StopTime: 2.31
    m_OrientationOffsetY: 0
    m_Level: 0
    m_CycleOffset: 0
    m_HasAdditiveReferencePose: 0
    m_LoopTime: 1
    m_LoopBlend: 0
    m_LoopBlendOrientation: 0
    m_LoopBlendPositionY: 0
    m_LoopBlendPositionXZ: 0
    m_KeepOriginalOrientation: 0
    m_KeepOriginalPositionY: 1
    m_KeepOriginalPositionXZ: 0
    m_HeightFromFeet: 0
    m_Mirror: 0
  m_EditorCurves: []
  m_EulerEditorCurves: []
  m_HasGenericRootTransform: 0
  m_HasMotionFloatCurves: 0
  m_Events: []
