%YAML 1.1
%TAG !u! tag:unity3d.com,2011:
--- !u!74 &7400000
AnimationClip:
  m_ObjectHideFlags: 0
  m_CorrespondingSourceObject: {fileID: 0}
  m_PrefabInstance: {fileID: 0}
  m_PrefabAsset: {fileID: 0}
  m_Name: 007_HealSE
  serializedVersion: 6
  m_Legacy: 0
  m_Compressed: 0
  m_UseHighQualityCurve: 1
  m_RotationCurves: []
  m_CompressedRotationCurves: []
  m_EulerCurves: []
  m_PositionCurves: []
  m_ScaleCurves: []
  m_FloatCurves: []
  m_PPtrCurves:
  - curve:
    - time: 0
      value: {fileID: -774210454661055939, guid: 4b934e88ffb9dff46a818dd5591a54b2, type: 3}
    - time: 0.1
      value: {fileID: -4824514114776311467, guid: 4b934e88ffb9dff46a818dd5591a54b2, type: 3}
    - time: 0.2
      value: {fileID: -6564593633605050384, guid: 4b934e88ffb9dff46a818dd5591a54b2, type: 3}
    - time: 0.3
      value: {fileID: -2437386682004003870, guid: 4b934e88ffb9dff46a818dd5591a54b2, type: 3}
    - time: 0.4
      value: {fileID: -8637302023550365653, guid: 4b934e88ffb9dff46a818dd5591a54b2, type: 3}
    - time: 0.5
      value: {fileID: -1995841921059121709, guid: 4b934e88ffb9dff46a818dd5591a54b2, type: 3}
    - time: 0.6
      value: {fileID: -4308048286009298324, guid: 4b934e88ffb9dff46a818dd5591a54b2, type: 3}
    - time: 0.7
      value: {fileID: 6607415304402267453, guid: 4b934e88ffb9dff46a818dd5591a54b2, type: 3}
    - time: 0.8
      value: {fileID: 2019413273824276543, guid: 4b934e88ffb9dff46a818dd5591a54b2, type: 3}
    - time: 0.9
      value: {fileID: 2818797955659121771, guid: 4b934e88ffb9dff46a818dd5591a54b2, type: 3}
    - time: 1
      value: {fileID: 8515692897323325526, guid: 4b934e88ffb9dff46a818dd5591a54b2, type: 3}
    - time: 1.1
      value: {fileID: -558127067719402855, guid: 4b934e88ffb9dff46a818dd5591a54b2, type: 3}
    - time: 1.2
      value: {fileID: -558127067719402855, guid: 4b934e88ffb9dff46a818dd5591a54b2, type: 3}
    attribute: m_Sprite
    path: 
    classID: 212
    script: {fileID: 0}
  m_SampleRate: 100
  m_WrapMode: 0
  m_Bounds:
    m_Center: {x: 0, y: 0, z: 0}
    m_Extent: {x: 0, y: 0, z: 0}
  m_ClipBindingConstant:
    genericBindings:
    - serializedVersion: 2
      path: 0
      attribute: 0
      script: {fileID: 0}
      typeID: 212
      customType: 23
      isPPtrCurve: 1
    pptrCurveMapping:
    - {fileID: -774210454661055939, guid: 4b934e88ffb9dff46a818dd5591a54b2, type: 3}
    - {fileID: -4824514114776311467, guid: 4b934e88ffb9dff46a818dd5591a54b2, type: 3}
    - {fileID: -6564593633605050384, guid: 4b934e88ffb9dff46a818dd5591a54b2, type: 3}
    - {fileID: -2437386682004003870, guid: 4b934e88ffb9dff46a818dd5591a54b2, type: 3}
    - {fileID: -8637302023550365653, guid: 4b934e88ffb9dff46a818dd5591a54b2, type: 3}
    - {fileID: -1995841921059121709, guid: 4b934e88ffb9dff46a818dd5591a54b2, type: 3}
    - {fileID: -4308048286009298324, guid: 4b934e88ffb9dff46a818dd5591a54b2, type: 3}
    - {fileID: 6607415304402267453, guid: 4b934e88ffb9dff46a818dd5591a54b2, type: 3}
    - {fileID: 2019413273824276543, guid: 4b934e88ffb9dff46a818dd5591a54b2, type: 3}
    - {fileID: 2818797955659121771, guid: 4b934e88ffb9dff46a818dd5591a54b2, type: 3}
    - {fileID: 8515692897323325526, guid: 4b934e88ffb9dff46a818dd5591a54b2, type: 3}
    - {fileID: -558127067719402855, guid: 4b934e88ffb9dff46a818dd5591a54b2, type: 3}
    - {fileID: -558127067719402855, guid: 4b934e88ffb9dff46a818dd5591a54b2, type: 3}
  m_AnimationClipSettings:
    serializedVersion: 2
    m_AdditiveReferencePoseClip: {fileID: 0}
    m_AdditiveReferencePoseTime: 0
    m_StartTime: 0
    m_StopTime: 1.21
    m_OrientationOffsetY: 0
    m_Level: 0
    m_CycleOffset: 0
    m_HasAdditiveReferencePose: 0
    m_LoopTime: 0
    m_LoopBlend: 0
    m_LoopBlendOrientation: 0
    m_LoopBlendPositionY: 0
    m_LoopBlendPositionXZ: 0
    m_KeepOriginalOrientation: 0
    m_KeepOriginalPositionY: 1
    m_KeepOriginalPositionXZ: 0
    m_HeightFromFeet: 0
    m_Mirror: 0
  m_EditorCurves: []
  m_EulerEditorCurves: []
  m_HasGenericRootTransform: 0
  m_HasMotionFloatCurves: 0
  m_Events: []
