%YAML 1.1
%TAG !u! tag:unity3d.com,2011:
--- !u!74 &7400000
AnimationClip:
  m_ObjectHideFlags: 0
  m_CorrespondingSourceObject: {fileID: 0}
  m_PrefabInstance: {fileID: 0}
  m_PrefabAsset: {fileID: 0}
  m_Name: 001B_Idle
  serializedVersion: 6
  m_Legacy: 0
  m_Compressed: 0
  m_UseHighQualityCurve: 1
  m_RotationCurves: []
  m_CompressedRotationCurves: []
  m_EulerCurves: []
  m_PositionCurves: []
  m_ScaleCurves: []
  m_FloatCurves: []
  m_PPtrCurves:
  - curve:
    - time: 0
      value: {fileID: 6813813158042437321, guid: 1e4acfc9723829a4499d55acfd818c5c, type: 3}
    - time: 0.09
      value: {fileID: 733996677094170111, guid: 1e4acfc9723829a4499d55acfd818c5c, type: 3}
    - time: 0.18
      value: {fileID: -8058566366402736289, guid: 1e4acfc9723829a4499d55acfd818c5c, type: 3}
    - time: 0.27
      value: {fileID: -4486039585760487398, guid: 1e4acfc9723829a4499d55acfd818c5c, type: 3}
    - time: 0.36
      value: {fileID: 288671751727404311, guid: 1e4acfc9723829a4499d55acfd818c5c, type: 3}
    - time: 0.45
      value: {fileID: 5610740626634095131, guid: 1e4acfc9723829a4499d55acfd818c5c, type: 3}
    - time: 0.54
      value: {fileID: 4461229221794423160, guid: 1e4acfc9723829a4499d55acfd818c5c, type: 3}
    - time: 0.63
      value: {fileID: 7466031286484524088, guid: 1e4acfc9723829a4499d55acfd818c5c, type: 3}
    - time: 0.72
      value: {fileID: -5139891339570274707, guid: 1e4acfc9723829a4499d55acfd818c5c, type: 3}
    attribute: m_Sprite
    path: 
    classID: 212
    script: {fileID: 0}
  m_SampleRate: 100
  m_WrapMode: 0
  m_Bounds:
    m_Center: {x: 0, y: 0, z: 0}
    m_Extent: {x: 0, y: 0, z: 0}
  m_ClipBindingConstant:
    genericBindings:
    - serializedVersion: 2
      path: 0
      attribute: 0
      script: {fileID: 0}
      typeID: 212
      customType: 23
      isPPtrCurve: 1
    pptrCurveMapping:
    - {fileID: 6813813158042437321, guid: 1e4acfc9723829a4499d55acfd818c5c, type: 3}
    - {fileID: 733996677094170111, guid: 1e4acfc9723829a4499d55acfd818c5c, type: 3}
    - {fileID: -8058566366402736289, guid: 1e4acfc9723829a4499d55acfd818c5c, type: 3}
    - {fileID: -4486039585760487398, guid: 1e4acfc9723829a4499d55acfd818c5c, type: 3}
    - {fileID: 288671751727404311, guid: 1e4acfc9723829a4499d55acfd818c5c, type: 3}
    - {fileID: 5610740626634095131, guid: 1e4acfc9723829a4499d55acfd818c5c, type: 3}
    - {fileID: 4461229221794423160, guid: 1e4acfc9723829a4499d55acfd818c5c, type: 3}
    - {fileID: 7466031286484524088, guid: 1e4acfc9723829a4499d55acfd818c5c, type: 3}
    - {fileID: -5139891339570274707, guid: 1e4acfc9723829a4499d55acfd818c5c, type: 3}
  m_AnimationClipSettings:
    serializedVersion: 2
    m_AdditiveReferencePoseClip: {fileID: 0}
    m_AdditiveReferencePoseTime: 0
    m_StartTime: 0
    m_StopTime: 0.73
    m_OrientationOffsetY: 0
    m_Level: 0
    m_CycleOffset: 0
    m_HasAdditiveReferencePose: 0
    m_LoopTime: 1
    m_LoopBlend: 0
    m_LoopBlendOrientation: 0
    m_LoopBlendPositionY: 0
    m_LoopBlendPositionXZ: 0
    m_KeepOriginalOrientation: 0
    m_KeepOriginalPositionY: 1
    m_KeepOriginalPositionXZ: 0
    m_HeightFromFeet: 0
    m_Mirror: 0
  m_EditorCurves: []
  m_EulerEditorCurves: []
  m_HasGenericRootTransform: 0
  m_HasMotionFloatCurves: 0
  m_Events: []
