%YAML 1.1
%TAG !u! tag:unity3d.com,2011:
--- !u!74 &7400000
AnimationClip:
  m_ObjectHideFlags: 0
  m_CorrespondingSourceObject: {fileID: 0}
  m_PrefabInstance: {fileID: 0}
  m_PrefabAsset: {fileID: 0}
  m_Name: 005_AttackSE
  serializedVersion: 6
  m_Legacy: 0
  m_Compressed: 0
  m_UseHighQualityCurve: 1
  m_RotationCurves: []
  m_CompressedRotationCurves: []
  m_EulerCurves: []
  m_PositionCurves: []
  m_ScaleCurves: []
  m_FloatCurves: []
  m_PPtrCurves:
  - curve:
    - time: 0
      value: {fileID: 4072089277798197546, guid: e5764104ea8862b418da63e09804c353, type: 3}
    - time: 0.09
      value: {fileID: 5355257751679809879, guid: e5764104ea8862b418da63e09804c353, type: 3}
    - time: 0.18
      value: {fileID: 575804261962385001, guid: e5764104ea8862b418da63e09804c353, type: 3}
    - time: 0.27
      value: {fileID: -2723960247336214987, guid: e5764104ea8862b418da63e09804c353, type: 3}
    - time: 0.36
      value: {fileID: 1361852817564832228, guid: e5764104ea8862b418da63e09804c353, type: 3}
    - time: 0.45
      value: {fileID: 3301748006674963568, guid: e5764104ea8862b418da63e09804c353, type: 3}
    - time: 0.54
      value: {fileID: -656240813793633212, guid: e5764104ea8862b418da63e09804c353, type: 3}
    - time: 0.63
      value: {fileID: -237580285983608868, guid: e5764104ea8862b418da63e09804c353, type: 3}
    - time: 0.72
      value: {fileID: -1474522704856636345, guid: e5764104ea8862b418da63e09804c353, type: 3}
    - time: 0.81
      value: {fileID: 5317633557310583764, guid: e5764104ea8862b418da63e09804c353, type: 3}
    - time: 0.9
      value: {fileID: -6459616203400542888, guid: e5764104ea8862b418da63e09804c353, type: 3}
    - time: 0.99
      value: {fileID: 8680045015920654533, guid: e5764104ea8862b418da63e09804c353, type: 3}
    attribute: m_Sprite
    path: 
    classID: 212
    script: {fileID: 0}
  m_SampleRate: 100
  m_WrapMode: 0
  m_Bounds:
    m_Center: {x: 0, y: 0, z: 0}
    m_Extent: {x: 0, y: 0, z: 0}
  m_ClipBindingConstant:
    genericBindings:
    - serializedVersion: 2
      path: 0
      attribute: 0
      script: {fileID: 0}
      typeID: 212
      customType: 23
      isPPtrCurve: 1
    pptrCurveMapping:
    - {fileID: 4072089277798197546, guid: e5764104ea8862b418da63e09804c353, type: 3}
    - {fileID: 5355257751679809879, guid: e5764104ea8862b418da63e09804c353, type: 3}
    - {fileID: 575804261962385001, guid: e5764104ea8862b418da63e09804c353, type: 3}
    - {fileID: -2723960247336214987, guid: e5764104ea8862b418da63e09804c353, type: 3}
    - {fileID: 1361852817564832228, guid: e5764104ea8862b418da63e09804c353, type: 3}
    - {fileID: 3301748006674963568, guid: e5764104ea8862b418da63e09804c353, type: 3}
    - {fileID: -656240813793633212, guid: e5764104ea8862b418da63e09804c353, type: 3}
    - {fileID: -237580285983608868, guid: e5764104ea8862b418da63e09804c353, type: 3}
    - {fileID: -1474522704856636345, guid: e5764104ea8862b418da63e09804c353, type: 3}
    - {fileID: 5317633557310583764, guid: e5764104ea8862b418da63e09804c353, type: 3}
    - {fileID: -6459616203400542888, guid: e5764104ea8862b418da63e09804c353, type: 3}
    - {fileID: 8680045015920654533, guid: e5764104ea8862b418da63e09804c353, type: 3}
  m_AnimationClipSettings:
    serializedVersion: 2
    m_AdditiveReferencePoseClip: {fileID: 0}
    m_AdditiveReferencePoseTime: 0
    m_StartTime: 0
    m_StopTime: 1
    m_OrientationOffsetY: 0
    m_Level: 0
    m_CycleOffset: 0
    m_HasAdditiveReferencePose: 0
    m_LoopTime: 1
    m_LoopBlend: 0
    m_LoopBlendOrientation: 0
    m_LoopBlendPositionY: 0
    m_LoopBlendPositionXZ: 0
    m_KeepOriginalOrientation: 0
    m_KeepOriginalPositionY: 1
    m_KeepOriginalPositionXZ: 0
    m_HeightFromFeet: 0
    m_Mirror: 0
  m_EditorCurves: []
  m_EulerEditorCurves: []
  m_HasGenericRootTransform: 0
  m_HasMotionFloatCurves: 0
  m_Events:
  - time: 0.18
    functionName: Attack
    data: 
    objectReferenceParameter: {fileID: 0}
    floatParameter: 0
    intParameter: 0
    messageOptions: 0
  - time: 0.45
    functionName: Attack
    data: 
    objectReferenceParameter: {fileID: 0}
    floatParameter: 0
    intParameter: 0
    messageOptions: 0
  - time: 0.72
    functionName: Attack
    data: 
    objectReferenceParameter: {fileID: 0}
    floatParameter: 0
    intParameter: 0
    messageOptions: 0
  - time: 1
    functionName: Attack
    data: 
    objectReferenceParameter: {fileID: 0}
    floatParameter: 0
    intParameter: 0
    messageOptions: 0
