%YAML 1.1
%TAG !u! tag:unity3d.com,2011:
--- !u!74 &7400000
AnimationClip:
  m_ObjectHideFlags: 0
  m_CorrespondingSourceObject: {fileID: 0}
  m_PrefabInstance: {fileID: 0}
  m_PrefabAsset: {fileID: 0}
  m_Name: Sentry_Destroy
  serializedVersion: 6
  m_Legacy: 0
  m_Compressed: 0
  m_UseHighQualityCurve: 1
  m_RotationCurves: []
  m_CompressedRotationCurves: []
  m_EulerCurves: []
  m_PositionCurves: []
  m_ScaleCurves: []
  m_FloatCurves: []
  m_PPtrCurves:
  - curve:
    - time: 0
      value: {fileID: 4092461647560173366, guid: 1c20597a01ef7ba47954b86abe5413cd, type: 3}
    - time: 0.07
      value: {fileID: -4165096584362713497, guid: 1c20597a01ef7ba47954b86abe5413cd, type: 3}
    - time: 0.13
      value: {fileID: 5795232213339400838, guid: 1c20597a01ef7ba47954b86abe5413cd, type: 3}
    - time: 0.2
      value: {fileID: 7060644129008580373, guid: 1c20597a01ef7ba47954b86abe5413cd, type: 3}
    - time: 0.27
      value: {fileID: -6414367157564565966, guid: 1c20597a01ef7ba47954b86abe5413cd, type: 3}
    - time: 0.34
      value: {fileID: -8974091146909683448, guid: 1c20597a01ef7ba47954b86abe5413cd, type: 3}
    - time: 0.4
      value: {fileID: -1191374295368323193, guid: 1c20597a01ef7ba47954b86abe5413cd, type: 3}
    - time: 0.47
      value: {fileID: -4787647714719809834, guid: 1c20597a01ef7ba47954b86abe5413cd, type: 3}
    - time: 0.54
      value: {fileID: 6410441172030391461, guid: 1c20597a01ef7ba47954b86abe5413cd, type: 3}
    - time: 0.61
      value: {fileID: -4798189642728133085, guid: 1c20597a01ef7ba47954b86abe5413cd, type: 3}
    - time: 0.67
      value: {fileID: -2614098551734111154, guid: 1c20597a01ef7ba47954b86abe5413cd, type: 3}
    - time: 0.74
      value: {fileID: -2614098551734111154, guid: 1c20597a01ef7ba47954b86abe5413cd, type: 3}
    attribute: m_Sprite
    path: 
    classID: 212
    script: {fileID: 0}
  m_SampleRate: 100
  m_WrapMode: 0
  m_Bounds:
    m_Center: {x: 0, y: 0, z: 0}
    m_Extent: {x: 0, y: 0, z: 0}
  m_ClipBindingConstant:
    genericBindings:
    - serializedVersion: 2
      path: 0
      attribute: 0
      script: {fileID: 0}
      typeID: 212
      customType: 23
      isPPtrCurve: 1
    pptrCurveMapping:
    - {fileID: 4092461647560173366, guid: 1c20597a01ef7ba47954b86abe5413cd, type: 3}
    - {fileID: -4165096584362713497, guid: 1c20597a01ef7ba47954b86abe5413cd, type: 3}
    - {fileID: 5795232213339400838, guid: 1c20597a01ef7ba47954b86abe5413cd, type: 3}
    - {fileID: 7060644129008580373, guid: 1c20597a01ef7ba47954b86abe5413cd, type: 3}
    - {fileID: -6414367157564565966, guid: 1c20597a01ef7ba47954b86abe5413cd, type: 3}
    - {fileID: -8974091146909683448, guid: 1c20597a01ef7ba47954b86abe5413cd, type: 3}
    - {fileID: -1191374295368323193, guid: 1c20597a01ef7ba47954b86abe5413cd, type: 3}
    - {fileID: -4787647714719809834, guid: 1c20597a01ef7ba47954b86abe5413cd, type: 3}
    - {fileID: 6410441172030391461, guid: 1c20597a01ef7ba47954b86abe5413cd, type: 3}
    - {fileID: -4798189642728133085, guid: 1c20597a01ef7ba47954b86abe5413cd, type: 3}
    - {fileID: -2614098551734111154, guid: 1c20597a01ef7ba47954b86abe5413cd, type: 3}
    - {fileID: -2614098551734111154, guid: 1c20597a01ef7ba47954b86abe5413cd, type: 3}
  m_AnimationClipSettings:
    serializedVersion: 2
    m_AdditiveReferencePoseClip: {fileID: 0}
    m_AdditiveReferencePoseTime: 0
    m_StartTime: 0
    m_StopTime: 0.75
    m_OrientationOffsetY: 0
    m_Level: 0
    m_CycleOffset: 0
    m_HasAdditiveReferencePose: 0
    m_LoopTime: 0
    m_LoopBlend: 0
    m_LoopBlendOrientation: 0
    m_LoopBlendPositionY: 0
    m_LoopBlendPositionXZ: 0
    m_KeepOriginalOrientation: 0
    m_KeepOriginalPositionY: 1
    m_KeepOriginalPositionXZ: 0
    m_HeightFromFeet: 0
    m_Mirror: 0
  m_EditorCurves: []
  m_EulerEditorCurves: []
  m_HasGenericRootTransform: 0
  m_HasMotionFloatCurves: 0
  m_Events: []
