%YAML 1.1
%TAG !u! tag:unity3d.com,2011:
--- !u!74 &7400000
AnimationClip:
  m_ObjectHideFlags: 0
  m_CorrespondingSourceObject: {fileID: 0}
  m_PrefabInstance: {fileID: 0}
  m_PrefabAsset: {fileID: 0}
  m_Name: Attack
  serializedVersion: 6
  m_Legacy: 0
  m_Compressed: 0
  m_UseHighQualityCurve: 1
  m_RotationCurves: []
  m_CompressedRotationCurves: []
  m_EulerCurves: []
  m_PositionCurves: []
  m_ScaleCurves: []
  m_FloatCurves: []
  m_PPtrCurves:
  - curve:
    - time: 0
      value: {fileID: -2885570707892967429, guid: bd67afe1f4a3ee740b63288e64ea69d6, type: 3}
    - time: 0.1
      value: {fileID: -7997161424150698079, guid: bd67afe1f4a3ee740b63288e64ea69d6, type: 3}
    - time: 0.2
      value: {fileID: 3635137505976537226, guid: bd67afe1f4a3ee740b63288e64ea69d6, type: 3}
    - time: 0.3
      value: {fileID: 641545340134872290, guid: bd67afe1f4a3ee740b63288e64ea69d6, type: 3}
    - time: 0.4
      value: {fileID: -2765621324116682390, guid: bd67afe1f4a3ee740b63288e64ea69d6, type: 3}
    - time: 0.5
      value: {fileID: -6414493298212708976, guid: bd67afe1f4a3ee740b63288e64ea69d6, type: 3}
    - time: 0.6
      value: {fileID: -6818825484966424279, guid: bd67afe1f4a3ee740b63288e64ea69d6, type: 3}
    - time: 0.7
      value: {fileID: -5210041786485468768, guid: bd67afe1f4a3ee740b63288e64ea69d6, type: 3}
    - time: 0.8
      value: {fileID: -2103367886404705710, guid: bd67afe1f4a3ee740b63288e64ea69d6, type: 3}
    - time: 0.9
      value: {fileID: 6412234701187417291, guid: bd67afe1f4a3ee740b63288e64ea69d6, type: 3}
    - time: 1
      value: {fileID: 8283195904689597477, guid: bd67afe1f4a3ee740b63288e64ea69d6, type: 3}
    - time: 1.1
      value: {fileID: 8375093451253363622, guid: bd67afe1f4a3ee740b63288e64ea69d6, type: 3}
    - time: 1.2
      value: {fileID: -4347426236990294706, guid: bd67afe1f4a3ee740b63288e64ea69d6, type: 3}
    - time: 1.3
      value: {fileID: 8721348185963500064, guid: bd67afe1f4a3ee740b63288e64ea69d6, type: 3}
    - time: 1.4
      value: {fileID: -5851214961888869225, guid: bd67afe1f4a3ee740b63288e64ea69d6, type: 3}
    - time: 1.5
      value: {fileID: 7064703582147543226, guid: bd67afe1f4a3ee740b63288e64ea69d6, type: 3}
    - time: 1.6
      value: {fileID: -6121687732984899692, guid: bd67afe1f4a3ee740b63288e64ea69d6, type: 3}
    - time: 1.7
      value: {fileID: 7583749116946008146, guid: bd67afe1f4a3ee740b63288e64ea69d6, type: 3}
    - time: 1.8
      value: {fileID: 4171410821034645584, guid: bd67afe1f4a3ee740b63288e64ea69d6, type: 3}
    - time: 1.9
      value: {fileID: 9006659019485285438, guid: bd67afe1f4a3ee740b63288e64ea69d6, type: 3}
    - time: 2
      value: {fileID: 1407591219231720899, guid: bd67afe1f4a3ee740b63288e64ea69d6, type: 3}
    - time: 2.1
      value: {fileID: 7808541991571870287, guid: bd67afe1f4a3ee740b63288e64ea69d6, type: 3}
    - time: 2.2
      value: {fileID: -1397763679938899467, guid: bd67afe1f4a3ee740b63288e64ea69d6, type: 3}
    - time: 2.3
      value: {fileID: -1836712110758082841, guid: bd67afe1f4a3ee740b63288e64ea69d6, type: 3}
    - time: 2.4
      value: {fileID: 4482559935549462278, guid: bd67afe1f4a3ee740b63288e64ea69d6, type: 3}
    - time: 2.5
      value: {fileID: -4475114202800954502, guid: bd67afe1f4a3ee740b63288e64ea69d6, type: 3}
    - time: 2.6
      value: {fileID: 6494536540569928557, guid: bd67afe1f4a3ee740b63288e64ea69d6, type: 3}
    - time: 2.7
      value: {fileID: 6554749142219144815, guid: bd67afe1f4a3ee740b63288e64ea69d6, type: 3}
    - time: 2.8
      value: {fileID: 1778868126388409775, guid: bd67afe1f4a3ee740b63288e64ea69d6, type: 3}
    - time: 2.9
      value: {fileID: 7362493045756661467, guid: bd67afe1f4a3ee740b63288e64ea69d6, type: 3}
    - time: 3
      value: {fileID: -2240197490271546445, guid: bd67afe1f4a3ee740b63288e64ea69d6, type: 3}
    attribute: m_Sprite
    path: 
    classID: 212
    script: {fileID: 0}
  m_SampleRate: 100
  m_WrapMode: 0
  m_Bounds:
    m_Center: {x: 0, y: 0, z: 0}
    m_Extent: {x: 0, y: 0, z: 0}
  m_ClipBindingConstant:
    genericBindings:
    - serializedVersion: 2
      path: 0
      attribute: 0
      script: {fileID: 0}
      typeID: 212
      customType: 23
      isPPtrCurve: 1
    pptrCurveMapping:
    - {fileID: -2885570707892967429, guid: bd67afe1f4a3ee740b63288e64ea69d6, type: 3}
    - {fileID: -7997161424150698079, guid: bd67afe1f4a3ee740b63288e64ea69d6, type: 3}
    - {fileID: 3635137505976537226, guid: bd67afe1f4a3ee740b63288e64ea69d6, type: 3}
    - {fileID: 641545340134872290, guid: bd67afe1f4a3ee740b63288e64ea69d6, type: 3}
    - {fileID: -2765621324116682390, guid: bd67afe1f4a3ee740b63288e64ea69d6, type: 3}
    - {fileID: -6414493298212708976, guid: bd67afe1f4a3ee740b63288e64ea69d6, type: 3}
    - {fileID: -6818825484966424279, guid: bd67afe1f4a3ee740b63288e64ea69d6, type: 3}
    - {fileID: -5210041786485468768, guid: bd67afe1f4a3ee740b63288e64ea69d6, type: 3}
    - {fileID: -2103367886404705710, guid: bd67afe1f4a3ee740b63288e64ea69d6, type: 3}
    - {fileID: 6412234701187417291, guid: bd67afe1f4a3ee740b63288e64ea69d6, type: 3}
    - {fileID: 8283195904689597477, guid: bd67afe1f4a3ee740b63288e64ea69d6, type: 3}
    - {fileID: 8375093451253363622, guid: bd67afe1f4a3ee740b63288e64ea69d6, type: 3}
    - {fileID: -4347426236990294706, guid: bd67afe1f4a3ee740b63288e64ea69d6, type: 3}
    - {fileID: 8721348185963500064, guid: bd67afe1f4a3ee740b63288e64ea69d6, type: 3}
    - {fileID: -5851214961888869225, guid: bd67afe1f4a3ee740b63288e64ea69d6, type: 3}
    - {fileID: 7064703582147543226, guid: bd67afe1f4a3ee740b63288e64ea69d6, type: 3}
    - {fileID: -6121687732984899692, guid: bd67afe1f4a3ee740b63288e64ea69d6, type: 3}
    - {fileID: 7583749116946008146, guid: bd67afe1f4a3ee740b63288e64ea69d6, type: 3}
    - {fileID: 4171410821034645584, guid: bd67afe1f4a3ee740b63288e64ea69d6, type: 3}
    - {fileID: 9006659019485285438, guid: bd67afe1f4a3ee740b63288e64ea69d6, type: 3}
    - {fileID: 1407591219231720899, guid: bd67afe1f4a3ee740b63288e64ea69d6, type: 3}
    - {fileID: 7808541991571870287, guid: bd67afe1f4a3ee740b63288e64ea69d6, type: 3}
    - {fileID: -1397763679938899467, guid: bd67afe1f4a3ee740b63288e64ea69d6, type: 3}
    - {fileID: -1836712110758082841, guid: bd67afe1f4a3ee740b63288e64ea69d6, type: 3}
    - {fileID: 4482559935549462278, guid: bd67afe1f4a3ee740b63288e64ea69d6, type: 3}
    - {fileID: -4475114202800954502, guid: bd67afe1f4a3ee740b63288e64ea69d6, type: 3}
    - {fileID: 6494536540569928557, guid: bd67afe1f4a3ee740b63288e64ea69d6, type: 3}
    - {fileID: 6554749142219144815, guid: bd67afe1f4a3ee740b63288e64ea69d6, type: 3}
    - {fileID: 1778868126388409775, guid: bd67afe1f4a3ee740b63288e64ea69d6, type: 3}
    - {fileID: 7362493045756661467, guid: bd67afe1f4a3ee740b63288e64ea69d6, type: 3}
    - {fileID: -2240197490271546445, guid: bd67afe1f4a3ee740b63288e64ea69d6, type: 3}
  m_AnimationClipSettings:
    serializedVersion: 2
    m_AdditiveReferencePoseClip: {fileID: 0}
    m_AdditiveReferencePoseTime: 0
    m_StartTime: 0
    m_StopTime: 3.01
    m_OrientationOffsetY: 0
    m_Level: 0
    m_CycleOffset: 0
    m_HasAdditiveReferencePose: 0
    m_LoopTime: 1
    m_LoopBlend: 0
    m_LoopBlendOrientation: 0
    m_LoopBlendPositionY: 0
    m_LoopBlendPositionXZ: 0
    m_KeepOriginalOrientation: 0
    m_KeepOriginalPositionY: 1
    m_KeepOriginalPositionXZ: 0
    m_HeightFromFeet: 0
    m_Mirror: 0
  m_EditorCurves: []
  m_EulerEditorCurves: []
  m_HasGenericRootTransform: 0
  m_HasMotionFloatCurves: 0
  m_Events:
  - time: 0.7
    functionName: Attack
    data: 
    objectReferenceParameter: {fileID: 0}
    floatParameter: 0
    intParameter: 0
    messageOptions: 0
