%YAML 1.1
%TAG !u! tag:unity3d.com,2011:
--- !u!74 &7400000
AnimationClip:
  m_ObjectHideFlags: 0
  m_CorrespondingSourceObject: {fileID: 0}
  m_PrefabInstance: {fileID: 0}
  m_PrefabAsset: {fileID: 0}
  m_Name: New Animation
  serializedVersion: 6
  m_Legacy: 0
  m_Compressed: 0
  m_UseHighQualityCurve: 1
  m_RotationCurves: []
  m_CompressedRotationCurves: []
  m_EulerCurves: []
  m_PositionCurves: []
  m_ScaleCurves: []
  m_FloatCurves: []
  m_PPtrCurves:
  - curve:
    - time: 0
      value: {fileID: 8033594736015597914, guid: 9feefce8226c1794da78a520d51d8e71, type: 3}
    - time: 0.09
      value: {fileID: 704035232970472345, guid: 9feefce8226c1794da78a520d51d8e71, type: 3}
    - time: 0.18
      value: {fileID: 7592553128509403596, guid: 9feefce8226c1794da78a520d51d8e71, type: 3}
    - time: 0.27
      value: {fileID: 4402387229209362895, guid: 9feefce8226c1794da78a520d51d8e71, type: 3}
    - time: 0.36
      value: {fileID: 6562078863585599152, guid: 9feefce8226c1794da78a520d51d8e71, type: 3}
    - time: 0.45
      value: {fileID: -3180006497691777597, guid: 9feefce8226c1794da78a520d51d8e71, type: 3}
    - time: 0.54
      value: {fileID: -8759351565619929256, guid: 9feefce8226c1794da78a520d51d8e71, type: 3}
    - time: 0.63
      value: {fileID: -533129616499845994, guid: 9feefce8226c1794da78a520d51d8e71, type: 3}
    - time: 0.72
      value: {fileID: -5054828069399699093, guid: 9feefce8226c1794da78a520d51d8e71, type: 3}
    attribute: m_Sprite
    path: 
    classID: 114
    script: {fileID: 11500000, guid: fe87c0e1cc204ed48ad3b37840f39efc, type: 3}
  m_SampleRate: 100
  m_WrapMode: 0
  m_Bounds:
    m_Center: {x: 0, y: 0, z: 0}
    m_Extent: {x: 0, y: 0, z: 0}
  m_ClipBindingConstant:
    genericBindings:
    - serializedVersion: 2
      path: 0
      attribute: 2015549526
      script: {fileID: 11500000, guid: fe87c0e1cc204ed48ad3b37840f39efc, type: 3}
      typeID: 114
      customType: 0
      isPPtrCurve: 1
    pptrCurveMapping:
    - {fileID: 8033594736015597914, guid: 9feefce8226c1794da78a520d51d8e71, type: 3}
    - {fileID: 704035232970472345, guid: 9feefce8226c1794da78a520d51d8e71, type: 3}
    - {fileID: 7592553128509403596, guid: 9feefce8226c1794da78a520d51d8e71, type: 3}
    - {fileID: 4402387229209362895, guid: 9feefce8226c1794da78a520d51d8e71, type: 3}
    - {fileID: 6562078863585599152, guid: 9feefce8226c1794da78a520d51d8e71, type: 3}
    - {fileID: -3180006497691777597, guid: 9feefce8226c1794da78a520d51d8e71, type: 3}
    - {fileID: -8759351565619929256, guid: 9feefce8226c1794da78a520d51d8e71, type: 3}
    - {fileID: -533129616499845994, guid: 9feefce8226c1794da78a520d51d8e71, type: 3}
    - {fileID: -5054828069399699093, guid: 9feefce8226c1794da78a520d51d8e71, type: 3}
  m_AnimationClipSettings:
    serializedVersion: 2
    m_AdditiveReferencePoseClip: {fileID: 0}
    m_AdditiveReferencePoseTime: 0
    m_StartTime: 0
    m_StopTime: 0.73
    m_OrientationOffsetY: 0
    m_Level: 0
    m_CycleOffset: 0
    m_HasAdditiveReferencePose: 0
    m_LoopTime: 1
    m_LoopBlend: 0
    m_LoopBlendOrientation: 0
    m_LoopBlendPositionY: 0
    m_LoopBlendPositionXZ: 0
    m_KeepOriginalOrientation: 0
    m_KeepOriginalPositionY: 1
    m_KeepOriginalPositionXZ: 0
    m_HeightFromFeet: 0
    m_Mirror: 0
  m_EditorCurves: []
  m_EulerEditorCurves: []
  m_HasGenericRootTransform: 0
  m_HasMotionFloatCurves: 0
  m_Events: []
