%YAML 1.1
%TAG !u! tag:unity3d.com,2011:
--- !u!74 &7400000
AnimationClip:
  m_ObjectHideFlags: 0
  m_CorrespondingSourceObject: {fileID: 0}
  m_PrefabInstance: {fileID: 0}
  m_PrefabAsset: {fileID: 0}
  m_Name: XiaLeiAttack
  serializedVersion: 6
  m_Legacy: 0
  m_Compressed: 0
  m_UseHighQualityCurve: 1
  m_RotationCurves: []
  m_CompressedRotationCurves: []
  m_EulerCurves: []
  m_PositionCurves: []
  m_ScaleCurves: []
  m_FloatCurves: []
  m_PPtrCurves:
  - curve:
    - time: 0
      value: {fileID: -7039551015303454828, guid: ce3a5877267df704f943a413346cb4af, type: 3}
    - time: 0.05
      value: {fileID: -6945694599380545712, guid: ce3a5877267df704f943a413346cb4af, type: 3}
    - time: 0.1
      value: {fileID: -3754616203791711608, guid: ce3a5877267df704f943a413346cb4af, type: 3}
    - time: 0.15
      value: {fileID: 1475716640569505741, guid: ce3a5877267df704f943a413346cb4af, type: 3}
    - time: 0.2
      value: {fileID: -239081178902330486, guid: ce3a5877267df704f943a413346cb4af, type: 3}
    - time: 0.25
      value: {fileID: -3001070158275682398, guid: ce3a5877267df704f943a413346cb4af, type: 3}
    - time: 0.3
      value: {fileID: 4313046549745930867, guid: ce3a5877267df704f943a413346cb4af, type: 3}
    - time: 0.35
      value: {fileID: -5999398973529664641, guid: ce3a5877267df704f943a413346cb4af, type: 3}
    - time: 0.4
      value: {fileID: -5237421033348398305, guid: ce3a5877267df704f943a413346cb4af, type: 3}
    - time: 0.45
      value: {fileID: -7491473498101855271, guid: ce3a5877267df704f943a413346cb4af, type: 3}
    - time: 0.5
      value: {fileID: -7491473498101855271, guid: ce3a5877267df704f943a413346cb4af, type: 3}
    attribute: m_Sprite
    path: 
    classID: 212
    script: {fileID: 0}
  m_SampleRate: 100
  m_WrapMode: 0
  m_Bounds:
    m_Center: {x: 0, y: 0, z: 0}
    m_Extent: {x: 0, y: 0, z: 0}
  m_ClipBindingConstant:
    genericBindings:
    - serializedVersion: 2
      path: 0
      attribute: 0
      script: {fileID: 0}
      typeID: 212
      customType: 23
      isPPtrCurve: 1
    pptrCurveMapping:
    - {fileID: -7039551015303454828, guid: ce3a5877267df704f943a413346cb4af, type: 3}
    - {fileID: -6945694599380545712, guid: ce3a5877267df704f943a413346cb4af, type: 3}
    - {fileID: -3754616203791711608, guid: ce3a5877267df704f943a413346cb4af, type: 3}
    - {fileID: 1475716640569505741, guid: ce3a5877267df704f943a413346cb4af, type: 3}
    - {fileID: -239081178902330486, guid: ce3a5877267df704f943a413346cb4af, type: 3}
    - {fileID: -3001070158275682398, guid: ce3a5877267df704f943a413346cb4af, type: 3}
    - {fileID: 4313046549745930867, guid: ce3a5877267df704f943a413346cb4af, type: 3}
    - {fileID: -5999398973529664641, guid: ce3a5877267df704f943a413346cb4af, type: 3}
    - {fileID: -5237421033348398305, guid: ce3a5877267df704f943a413346cb4af, type: 3}
    - {fileID: -7491473498101855271, guid: ce3a5877267df704f943a413346cb4af, type: 3}
    - {fileID: -7491473498101855271, guid: ce3a5877267df704f943a413346cb4af, type: 3}
  m_AnimationClipSettings:
    serializedVersion: 2
    m_AdditiveReferencePoseClip: {fileID: 0}
    m_AdditiveReferencePoseTime: 0
    m_StartTime: 0
    m_StopTime: 0.51
    m_OrientationOffsetY: 0
    m_Level: 0
    m_CycleOffset: 0
    m_HasAdditiveReferencePose: 0
    m_LoopTime: 1
    m_LoopBlend: 0
    m_LoopBlendOrientation: 0
    m_LoopBlendPositionY: 0
    m_LoopBlendPositionXZ: 0
    m_KeepOriginalOrientation: 0
    m_KeepOriginalPositionY: 1
    m_KeepOriginalPositionXZ: 0
    m_HeightFromFeet: 0
    m_Mirror: 0
  m_EditorCurves: []
  m_EulerEditorCurves: []
  m_HasGenericRootTransform: 0
  m_HasMotionFloatCurves: 0
  m_Events:
  - time: 0.25
    functionName: Attack
    data: 
    objectReferenceParameter: {fileID: 0}
    floatParameter: 0
    intParameter: 0
    messageOptions: 0
