%YAML 1.1
%TAG !u! tag:unity3d.com,2011:
--- !u!74 &7400000
AnimationClip:
  m_ObjectHideFlags: 0
  m_CorrespondingSourceObject: {fileID: 0}
  m_PrefabInstance: {fileID: 0}
  m_PrefabAsset: {fileID: 0}
  m_Name: a_LightInfantry_UI
  serializedVersion: 6
  m_Legacy: 0
  m_Compressed: 0
  m_UseHighQualityCurve: 1
  m_RotationCurves: []
  m_CompressedRotationCurves: []
  m_EulerCurves: []
  m_PositionCurves: []
  m_ScaleCurves: []
  m_FloatCurves: []
  m_PPtrCurves:
  - curve:
    - time: 0
      value: {fileID: -8374802176760684583, guid: 144b8b5ccb0f35f4094533ed20a47a37, type: 3}
    - time: 0.09
      value: {fileID: -6419345121864191281, guid: 144b8b5ccb0f35f4094533ed20a47a37, type: 3}
    - time: 0.18
      value: {fileID: 4836036464143757327, guid: 144b8b5ccb0f35f4094533ed20a47a37, type: 3}
    - time: 0.27
      value: {fileID: 7135300212081703706, guid: 144b8b5ccb0f35f4094533ed20a47a37, type: 3}
    - time: 0.36
      value: {fileID: 866675756726823595, guid: 144b8b5ccb0f35f4094533ed20a47a37, type: 3}
    - time: 0.45
      value: {fileID: -1857390118596717565, guid: 144b8b5ccb0f35f4094533ed20a47a37, type: 3}
    - time: 0.54
      value: {fileID: -1417153396668727883, guid: 144b8b5ccb0f35f4094533ed20a47a37, type: 3}
    - time: 0.63
      value: {fileID: 6495100352390219272, guid: 144b8b5ccb0f35f4094533ed20a47a37, type: 3}
    - time: 0.72
      value: {fileID: 6495100352390219272, guid: 144b8b5ccb0f35f4094533ed20a47a37, type: 3}
    attribute: m_Sprite
    path: 
    classID: 114
    script: {fileID: 11500000, guid: fe87c0e1cc204ed48ad3b37840f39efc, type: 3}
  m_SampleRate: 100
  m_WrapMode: 0
  m_Bounds:
    m_Center: {x: 0, y: 0, z: 0}
    m_Extent: {x: 0, y: 0, z: 0}
  m_ClipBindingConstant:
    genericBindings:
    - serializedVersion: 2
      path: 0
      attribute: 2015549526
      script: {fileID: 11500000, guid: fe87c0e1cc204ed48ad3b37840f39efc, type: 3}
      typeID: 114
      customType: 0
      isPPtrCurve: 1
    pptrCurveMapping:
    - {fileID: -8374802176760684583, guid: 144b8b5ccb0f35f4094533ed20a47a37, type: 3}
    - {fileID: -6419345121864191281, guid: 144b8b5ccb0f35f4094533ed20a47a37, type: 3}
    - {fileID: 4836036464143757327, guid: 144b8b5ccb0f35f4094533ed20a47a37, type: 3}
    - {fileID: 7135300212081703706, guid: 144b8b5ccb0f35f4094533ed20a47a37, type: 3}
    - {fileID: 866675756726823595, guid: 144b8b5ccb0f35f4094533ed20a47a37, type: 3}
    - {fileID: -1857390118596717565, guid: 144b8b5ccb0f35f4094533ed20a47a37, type: 3}
    - {fileID: -1417153396668727883, guid: 144b8b5ccb0f35f4094533ed20a47a37, type: 3}
    - {fileID: 6495100352390219272, guid: 144b8b5ccb0f35f4094533ed20a47a37, type: 3}
    - {fileID: 6495100352390219272, guid: 144b8b5ccb0f35f4094533ed20a47a37, type: 3}
  m_AnimationClipSettings:
    serializedVersion: 2
    m_AdditiveReferencePoseClip: {fileID: 0}
    m_AdditiveReferencePoseTime: 0
    m_StartTime: 0
    m_StopTime: 0.73
    m_OrientationOffsetY: 0
    m_Level: 0
    m_CycleOffset: 0
    m_HasAdditiveReferencePose: 0
    m_LoopTime: 1
    m_LoopBlend: 0
    m_LoopBlendOrientation: 0
    m_LoopBlendPositionY: 0
    m_LoopBlendPositionXZ: 0
    m_KeepOriginalOrientation: 0
    m_KeepOriginalPositionY: 1
    m_KeepOriginalPositionXZ: 0
    m_HeightFromFeet: 0
    m_Mirror: 0
  m_EditorCurves: []
  m_EulerEditorCurves: []
  m_HasGenericRootTransform: 0
  m_HasMotionFloatCurves: 0
  m_Events: []
