%YAML 1.1
%TAG !u! tag:unity3d.com,2011:
--- !u!74 &7400000
AnimationClip:
  m_ObjectHideFlags: 0
  m_CorrespondingSourceObject: {fileID: 0}
  m_PrefabInstance: {fileID: 0}
  m_PrefabAsset: {fileID: 0}
  m_Name: Dead_LightInfantry
  serializedVersion: 6
  m_Legacy: 0
  m_Compressed: 0
  m_UseHighQualityCurve: 1
  m_RotationCurves: []
  m_CompressedRotationCurves: []
  m_EulerCurves: []
  m_PositionCurves: []
  m_ScaleCurves: []
  m_FloatCurves: []
  m_PPtrCurves:
  - curve:
    - time: 0
      value: {fileID: 2855599119401481004, guid: 853cb24921d59924eba1172998a2b641, type: 3}
    - time: 0.07
      value: {fileID: 9135995967191070153, guid: 853cb24921d59924eba1172998a2b641, type: 3}
    - time: 0.13
      value: {fileID: 2258816537458322729, guid: 853cb24921d59924eba1172998a2b641, type: 3}
    - time: 0.2
      value: {fileID: 2573511194429935927, guid: 853cb24921d59924eba1172998a2b641, type: 3}
    - time: 0.27
      value: {fileID: -1805510621324989802, guid: 853cb24921d59924eba1172998a2b641, type: 3}
    - time: 0.34
      value: {fileID: -8431758364859236514, guid: 853cb24921d59924eba1172998a2b641, type: 3}
    - time: 0.4
      value: {fileID: 1639250017551464450, guid: 853cb24921d59924eba1172998a2b641, type: 3}
    - time: 0.47
      value: {fileID: 502517480404840226, guid: 853cb24921d59924eba1172998a2b641, type: 3}
    - time: 0.54
      value: {fileID: 3708840261822481453, guid: 853cb24921d59924eba1172998a2b641, type: 3}
    - time: 0.6
      value: {fileID: -7571048273870071957, guid: 853cb24921d59924eba1172998a2b641, type: 3}
    - time: 0.67
      value: {fileID: -7571048273870071957, guid: 853cb24921d59924eba1172998a2b641, type: 3}
    attribute: m_Sprite
    path: 
    classID: 212
    script: {fileID: 0}
  m_SampleRate: 100
  m_WrapMode: 0
  m_Bounds:
    m_Center: {x: 0, y: 0, z: 0}
    m_Extent: {x: 0, y: 0, z: 0}
  m_ClipBindingConstant:
    genericBindings:
    - serializedVersion: 2
      path: 0
      attribute: 0
      script: {fileID: 0}
      typeID: 212
      customType: 23
      isPPtrCurve: 1
    pptrCurveMapping:
    - {fileID: 2855599119401481004, guid: 853cb24921d59924eba1172998a2b641, type: 3}
    - {fileID: 9135995967191070153, guid: 853cb24921d59924eba1172998a2b641, type: 3}
    - {fileID: 2258816537458322729, guid: 853cb24921d59924eba1172998a2b641, type: 3}
    - {fileID: 2573511194429935927, guid: 853cb24921d59924eba1172998a2b641, type: 3}
    - {fileID: -1805510621324989802, guid: 853cb24921d59924eba1172998a2b641, type: 3}
    - {fileID: -8431758364859236514, guid: 853cb24921d59924eba1172998a2b641, type: 3}
    - {fileID: 1639250017551464450, guid: 853cb24921d59924eba1172998a2b641, type: 3}
    - {fileID: 502517480404840226, guid: 853cb24921d59924eba1172998a2b641, type: 3}
    - {fileID: 3708840261822481453, guid: 853cb24921d59924eba1172998a2b641, type: 3}
    - {fileID: -7571048273870071957, guid: 853cb24921d59924eba1172998a2b641, type: 3}
    - {fileID: -7571048273870071957, guid: 853cb24921d59924eba1172998a2b641, type: 3}
  m_AnimationClipSettings:
    serializedVersion: 2
    m_AdditiveReferencePoseClip: {fileID: 0}
    m_AdditiveReferencePoseTime: 0
    m_StartTime: 0
    m_StopTime: 0.68
    m_OrientationOffsetY: 0
    m_Level: 0
    m_CycleOffset: 0
    m_HasAdditiveReferencePose: 0
    m_LoopTime: 1
    m_LoopBlend: 0
    m_LoopBlendOrientation: 0
    m_LoopBlendPositionY: 0
    m_LoopBlendPositionXZ: 0
    m_KeepOriginalOrientation: 0
    m_KeepOriginalPositionY: 1
    m_KeepOriginalPositionXZ: 0
    m_HeightFromFeet: 0
    m_Mirror: 0
  m_EditorCurves: []
  m_EulerEditorCurves: []
  m_HasGenericRootTransform: 0
  m_HasMotionFloatCurves: 0
  m_Events: []
