%YAML 1.1
%TAG !u! tag:unity3d.com,2011:
--- !u!74 &7400000
AnimationClip:
  m_ObjectHideFlags: 0
  m_CorrespondingSourceObject: {fileID: 0}
  m_PrefabInstance: {fileID: 0}
  m_PrefabAsset: {fileID: 0}
  m_Name: New Animation
  serializedVersion: 6
  m_Legacy: 0
  m_Compressed: 0
  m_UseHighQualityCurve: 1
  m_RotationCurves: []
  m_CompressedRotationCurves: []
  m_EulerCurves: []
  m_PositionCurves: []
  m_ScaleCurves: []
  m_FloatCurves: []
  m_PPtrCurves:
  - curve:
    - time: 0
      value: {fileID: 8957067317143683289, guid: 726d8c783ffafd5408ef4d3edbaa2df1, type: 3}
    - time: 0.05
      value: {fileID: 6857395643490188210, guid: 726d8c783ffafd5408ef4d3edbaa2df1, type: 3}
    - time: 0.1
      value: {fileID: -5649697690495026459, guid: 726d8c783ffafd5408ef4d3edbaa2df1, type: 3}
    - time: 0.15
      value: {fileID: -3341157858307911750, guid: 726d8c783ffafd5408ef4d3edbaa2df1, type: 3}
    - time: 0.2
      value: {fileID: 8266280682682575262, guid: 726d8c783ffafd5408ef4d3edbaa2df1, type: 3}
    - time: 0.25
      value: {fileID: 2214163447736339654, guid: 726d8c783ffafd5408ef4d3edbaa2df1, type: 3}
    - time: 0.3
      value: {fileID: -1161277989909204866, guid: 726d8c783ffafd5408ef4d3edbaa2df1, type: 3}
    - time: 0.35
      value: {fileID: 311172288563070298, guid: 726d8c783ffafd5408ef4d3edbaa2df1, type: 3}
    - time: 0.4
      value: {fileID: 5322308193559141259, guid: 726d8c783ffafd5408ef4d3edbaa2df1, type: 3}
    attribute: m_Sprite
    path: 
    classID: 114
    script: {fileID: 11500000, guid: fe87c0e1cc204ed48ad3b37840f39efc, type: 3}
  m_SampleRate: 100
  m_WrapMode: 0
  m_Bounds:
    m_Center: {x: 0, y: 0, z: 0}
    m_Extent: {x: 0, y: 0, z: 0}
  m_ClipBindingConstant:
    genericBindings:
    - serializedVersion: 2
      path: 0
      attribute: 2015549526
      script: {fileID: 11500000, guid: fe87c0e1cc204ed48ad3b37840f39efc, type: 3}
      typeID: 114
      customType: 0
      isPPtrCurve: 1
    pptrCurveMapping:
    - {fileID: 8957067317143683289, guid: 726d8c783ffafd5408ef4d3edbaa2df1, type: 3}
    - {fileID: 6857395643490188210, guid: 726d8c783ffafd5408ef4d3edbaa2df1, type: 3}
    - {fileID: -5649697690495026459, guid: 726d8c783ffafd5408ef4d3edbaa2df1, type: 3}
    - {fileID: -3341157858307911750, guid: 726d8c783ffafd5408ef4d3edbaa2df1, type: 3}
    - {fileID: 8266280682682575262, guid: 726d8c783ffafd5408ef4d3edbaa2df1, type: 3}
    - {fileID: 2214163447736339654, guid: 726d8c783ffafd5408ef4d3edbaa2df1, type: 3}
    - {fileID: -1161277989909204866, guid: 726d8c783ffafd5408ef4d3edbaa2df1, type: 3}
    - {fileID: 311172288563070298, guid: 726d8c783ffafd5408ef4d3edbaa2df1, type: 3}
    - {fileID: 5322308193559141259, guid: 726d8c783ffafd5408ef4d3edbaa2df1, type: 3}
  m_AnimationClipSettings:
    serializedVersion: 2
    m_AdditiveReferencePoseClip: {fileID: 0}
    m_AdditiveReferencePoseTime: 0
    m_StartTime: 0
    m_StopTime: 0.41
    m_OrientationOffsetY: 0
    m_Level: 0
    m_CycleOffset: 0
    m_HasAdditiveReferencePose: 0
    m_LoopTime: 1
    m_LoopBlend: 0
    m_LoopBlendOrientation: 0
    m_LoopBlendPositionY: 0
    m_LoopBlendPositionXZ: 0
    m_KeepOriginalOrientation: 0
    m_KeepOriginalPositionY: 1
    m_KeepOriginalPositionXZ: 0
    m_HeightFromFeet: 0
    m_Mirror: 0
  m_EditorCurves: []
  m_EulerEditorCurves: []
  m_HasGenericRootTransform: 0
  m_HasMotionFloatCurves: 0
  m_Events: []
