%YAML 1.1
%TAG !u! tag:unity3d.com,2011:
--- !u!74 &7400000
AnimationClip:
  m_ObjectHideFlags: 0
  m_CorrespondingSourceObject: {fileID: 0}
  m_PrefabInstance: {fileID: 0}
  m_PrefabAsset: {fileID: 0}
  m_Name: 005_Idle
  serializedVersion: 6
  m_Legacy: 0
  m_Compressed: 0
  m_UseHighQualityCurve: 1
  m_RotationCurves: []
  m_CompressedRotationCurves: []
  m_EulerCurves: []
  m_PositionCurves: []
  m_ScaleCurves: []
  m_FloatCurves: []
  m_PPtrCurves:
  - curve:
    - time: 0
      value: {fileID: 8545484829916317352, guid: c47936e1ba643574491c6e5d3c5a7340, type: 3}
    - time: 0.09
      value: {fileID: -5519130495596875331, guid: c47936e1ba643574491c6e5d3c5a7340, type: 3}
    - time: 0.18
      value: {fileID: 7625874299682268146, guid: c47936e1ba643574491c6e5d3c5a7340, type: 3}
    - time: 0.27
      value: {fileID: 8567483381613665880, guid: c47936e1ba643574491c6e5d3c5a7340, type: 3}
    - time: 0.36
      value: {fileID: -7981075132684641851, guid: c47936e1ba643574491c6e5d3c5a7340, type: 3}
    - time: 0.45
      value: {fileID: 6663879537675204019, guid: c47936e1ba643574491c6e5d3c5a7340, type: 3}
    - time: 0.54
      value: {fileID: 6303460621735015887, guid: c47936e1ba643574491c6e5d3c5a7340, type: 3}
    - time: 0.63
      value: {fileID: -8313021314540210959, guid: c47936e1ba643574491c6e5d3c5a7340, type: 3}
    - time: 0.72
      value: {fileID: 2086220945600006279, guid: c47936e1ba643574491c6e5d3c5a7340, type: 3}
    attribute: m_Sprite
    path: 
    classID: 212
    script: {fileID: 0}
  m_SampleRate: 100
  m_WrapMode: 0
  m_Bounds:
    m_Center: {x: 0, y: 0, z: 0}
    m_Extent: {x: 0, y: 0, z: 0}
  m_ClipBindingConstant:
    genericBindings:
    - serializedVersion: 2
      path: 0
      attribute: 0
      script: {fileID: 0}
      typeID: 212
      customType: 23
      isPPtrCurve: 1
    pptrCurveMapping:
    - {fileID: 8545484829916317352, guid: c47936e1ba643574491c6e5d3c5a7340, type: 3}
    - {fileID: -5519130495596875331, guid: c47936e1ba643574491c6e5d3c5a7340, type: 3}
    - {fileID: 7625874299682268146, guid: c47936e1ba643574491c6e5d3c5a7340, type: 3}
    - {fileID: 8567483381613665880, guid: c47936e1ba643574491c6e5d3c5a7340, type: 3}
    - {fileID: -7981075132684641851, guid: c47936e1ba643574491c6e5d3c5a7340, type: 3}
    - {fileID: 6663879537675204019, guid: c47936e1ba643574491c6e5d3c5a7340, type: 3}
    - {fileID: 6303460621735015887, guid: c47936e1ba643574491c6e5d3c5a7340, type: 3}
    - {fileID: -8313021314540210959, guid: c47936e1ba643574491c6e5d3c5a7340, type: 3}
    - {fileID: 2086220945600006279, guid: c47936e1ba643574491c6e5d3c5a7340, type: 3}
  m_AnimationClipSettings:
    serializedVersion: 2
    m_AdditiveReferencePoseClip: {fileID: 0}
    m_AdditiveReferencePoseTime: 0
    m_StartTime: 0
    m_StopTime: 0.73
    m_OrientationOffsetY: 0
    m_Level: 0
    m_CycleOffset: 0
    m_HasAdditiveReferencePose: 0
    m_LoopTime: 1
    m_LoopBlend: 0
    m_LoopBlendOrientation: 0
    m_LoopBlendPositionY: 0
    m_LoopBlendPositionXZ: 0
    m_KeepOriginalOrientation: 0
    m_KeepOriginalPositionY: 1
    m_KeepOriginalPositionXZ: 0
    m_HeightFromFeet: 0
    m_Mirror: 0
  m_EditorCurves: []
  m_EulerEditorCurves: []
  m_HasGenericRootTransform: 0
  m_HasMotionFloatCurves: 0
  m_Events: []
