%YAML 1.1
%TAG !u! tag:unity3d.com,2011:
--- !u!74 &7400000
AnimationClip:
  m_ObjectHideFlags: 0
  m_CorrespondingSourceObject: {fileID: 0}
  m_PrefabInstance: {fileID: 0}
  m_PrefabAsset: {fileID: 0}
  m_Name: M001_Attack
  serializedVersion: 6
  m_Legacy: 0
  m_Compressed: 0
  m_UseHighQualityCurve: 1
  m_RotationCurves: []
  m_CompressedRotationCurves: []
  m_EulerCurves: []
  m_PositionCurves: []
  m_ScaleCurves: []
  m_FloatCurves: []
  m_PPtrCurves:
  - curve:
    - time: 0
      value: {fileID: 3333069918831069420, guid: 0bad135af7dee0745a84aa0db2638eda, type: 3}
    - time: 0.1
      value: {fileID: -7806295128253460630, guid: 0bad135af7dee0745a84aa0db2638eda, type: 3}
    - time: 0.2
      value: {fileID: -1482442420777569495, guid: 0bad135af7dee0745a84aa0db2638eda, type: 3}
    - time: 0.3
      value: {fileID: -2543635125016213053, guid: 0bad135af7dee0745a84aa0db2638eda, type: 3}
    - time: 0.4
      value: {fileID: -2004368072773215809, guid: 0bad135af7dee0745a84aa0db2638eda, type: 3}
    - time: 0.5
      value: {fileID: 4510858008937571115, guid: 0bad135af7dee0745a84aa0db2638eda, type: 3}
    - time: 0.6
      value: {fileID: -1269351732562493425, guid: 0bad135af7dee0745a84aa0db2638eda, type: 3}
    - time: 0.7
      value: {fileID: -8774331770276012930, guid: 0bad135af7dee0745a84aa0db2638eda, type: 3}
    - time: 0.8
      value: {fileID: -6216126503642122481, guid: 0bad135af7dee0745a84aa0db2638eda, type: 3}
    - time: 0.9
      value: {fileID: 3211087348119128464, guid: 0bad135af7dee0745a84aa0db2638eda, type: 3}
    - time: 1
      value: {fileID: -4860850352382453318, guid: 0bad135af7dee0745a84aa0db2638eda, type: 3}
    - time: 1.1
      value: {fileID: -4517804289149878174, guid: 0bad135af7dee0745a84aa0db2638eda, type: 3}
    attribute: m_Sprite
    path: 
    classID: 212
    script: {fileID: 0}
  m_SampleRate: 100
  m_WrapMode: 0
  m_Bounds:
    m_Center: {x: 0, y: 0, z: 0}
    m_Extent: {x: 0, y: 0, z: 0}
  m_ClipBindingConstant:
    genericBindings:
    - serializedVersion: 2
      path: 0
      attribute: 0
      script: {fileID: 0}
      typeID: 212
      customType: 23
      isPPtrCurve: 1
    pptrCurveMapping:
    - {fileID: 3333069918831069420, guid: 0bad135af7dee0745a84aa0db2638eda, type: 3}
    - {fileID: -7806295128253460630, guid: 0bad135af7dee0745a84aa0db2638eda, type: 3}
    - {fileID: -1482442420777569495, guid: 0bad135af7dee0745a84aa0db2638eda, type: 3}
    - {fileID: -2543635125016213053, guid: 0bad135af7dee0745a84aa0db2638eda, type: 3}
    - {fileID: -2004368072773215809, guid: 0bad135af7dee0745a84aa0db2638eda, type: 3}
    - {fileID: 4510858008937571115, guid: 0bad135af7dee0745a84aa0db2638eda, type: 3}
    - {fileID: -1269351732562493425, guid: 0bad135af7dee0745a84aa0db2638eda, type: 3}
    - {fileID: -8774331770276012930, guid: 0bad135af7dee0745a84aa0db2638eda, type: 3}
    - {fileID: -6216126503642122481, guid: 0bad135af7dee0745a84aa0db2638eda, type: 3}
    - {fileID: 3211087348119128464, guid: 0bad135af7dee0745a84aa0db2638eda, type: 3}
    - {fileID: -4860850352382453318, guid: 0bad135af7dee0745a84aa0db2638eda, type: 3}
    - {fileID: -4517804289149878174, guid: 0bad135af7dee0745a84aa0db2638eda, type: 3}
  m_AnimationClipSettings:
    serializedVersion: 2
    m_AdditiveReferencePoseClip: {fileID: 0}
    m_AdditiveReferencePoseTime: 0
    m_StartTime: 0
    m_StopTime: 1.11
    m_OrientationOffsetY: 0
    m_Level: 0
    m_CycleOffset: 0
    m_HasAdditiveReferencePose: 0
    m_LoopTime: 1
    m_LoopBlend: 0
    m_LoopBlendOrientation: 0
    m_LoopBlendPositionY: 0
    m_LoopBlendPositionXZ: 0
    m_KeepOriginalOrientation: 0
    m_KeepOriginalPositionY: 1
    m_KeepOriginalPositionXZ: 0
    m_HeightFromFeet: 0
    m_Mirror: 0
  m_EditorCurves: []
  m_EulerEditorCurves: []
  m_HasGenericRootTransform: 0
  m_HasMotionFloatCurves: 0
  m_Events:
  - time: 0.6
    functionName: InsBullet
    data: 
    objectReferenceParameter: {fileID: 0}
    floatParameter: 0
    intParameter: 0
    messageOptions: 0
