%YAML 1.1
%TAG !u! tag:unity3d.com,2011:
--- !u!74 &7400000
AnimationClip:
  m_ObjectHideFlags: 0
  m_CorrespondingSourceObject: {fileID: 0}
  m_PrefabInstance: {fileID: 0}
  m_PrefabAsset: {fileID: 0}
  m_Name: Shotgunner_Attack
  serializedVersion: 6
  m_Legacy: 0
  m_Compressed: 0
  m_UseHighQualityCurve: 1
  m_RotationCurves: []
  m_CompressedRotationCurves: []
  m_EulerCurves: []
  m_PositionCurves: []
  m_ScaleCurves: []
  m_FloatCurves: []
  m_PPtrCurves:
  - curve:
    - time: 0
      value: {fileID: 8478801309755012359, guid: a44c8781ef94ec0478e051fe718f0855, type: 3}
    - time: 0.09
      value: {fileID: 2290518727974551473, guid: a44c8781ef94ec0478e051fe718f0855, type: 3}
    - time: 0.18
      value: {fileID: -2023199213692006978, guid: a44c8781ef94ec0478e051fe718f0855, type: 3}
    - time: 0.27
      value: {fileID: -4166122702310228346, guid: a44c8781ef94ec0478e051fe718f0855, type: 3}
    - time: 0.36
      value: {fileID: 8672583319257670270, guid: a44c8781ef94ec0478e051fe718f0855, type: 3}
    - time: 0.45
      value: {fileID: -7191245729906155253, guid: a44c8781ef94ec0478e051fe718f0855, type: 3}
    - time: 0.54
      value: {fileID: 1303458263584893245, guid: a44c8781ef94ec0478e051fe718f0855, type: 3}
    - time: 0.63
      value: {fileID: -2348129008645880105, guid: a44c8781ef94ec0478e051fe718f0855, type: 3}
    - time: 0.72
      value: {fileID: 4564799356874544250, guid: a44c8781ef94ec0478e051fe718f0855, type: 3}
    - time: 0.81
      value: {fileID: -103051272570276789, guid: a44c8781ef94ec0478e051fe718f0855, type: 3}
    - time: 0.9
      value: {fileID: 4159887834088517296, guid: a44c8781ef94ec0478e051fe718f0855, type: 3}
    - time: 0.99
      value: {fileID: -2603635332467638465, guid: a44c8781ef94ec0478e051fe718f0855, type: 3}
    - time: 1.08
      value: {fileID: -3110557107038835652, guid: a44c8781ef94ec0478e051fe718f0855, type: 3}
    - time: 1.17
      value: {fileID: -6922275862079153077, guid: a44c8781ef94ec0478e051fe718f0855, type: 3}
    - time: 1.26
      value: {fileID: 8478801309755012359, guid: a44c8781ef94ec0478e051fe718f0855, type: 3}
    - time: 2
      value: {fileID: 8478801309755012359, guid: a44c8781ef94ec0478e051fe718f0855, type: 3}
    attribute: m_Sprite
    path: 
    classID: 212
    script: {fileID: 0}
  m_SampleRate: 100
  m_WrapMode: 0
  m_Bounds:
    m_Center: {x: 0, y: 0, z: 0}
    m_Extent: {x: 0, y: 0, z: 0}
  m_ClipBindingConstant:
    genericBindings:
    - serializedVersion: 2
      path: 0
      attribute: 0
      script: {fileID: 0}
      typeID: 212
      customType: 23
      isPPtrCurve: 1
    pptrCurveMapping:
    - {fileID: 8478801309755012359, guid: a44c8781ef94ec0478e051fe718f0855, type: 3}
    - {fileID: 2290518727974551473, guid: a44c8781ef94ec0478e051fe718f0855, type: 3}
    - {fileID: -2023199213692006978, guid: a44c8781ef94ec0478e051fe718f0855, type: 3}
    - {fileID: -4166122702310228346, guid: a44c8781ef94ec0478e051fe718f0855, type: 3}
    - {fileID: 8672583319257670270, guid: a44c8781ef94ec0478e051fe718f0855, type: 3}
    - {fileID: -7191245729906155253, guid: a44c8781ef94ec0478e051fe718f0855, type: 3}
    - {fileID: 1303458263584893245, guid: a44c8781ef94ec0478e051fe718f0855, type: 3}
    - {fileID: -2348129008645880105, guid: a44c8781ef94ec0478e051fe718f0855, type: 3}
    - {fileID: 4564799356874544250, guid: a44c8781ef94ec0478e051fe718f0855, type: 3}
    - {fileID: -103051272570276789, guid: a44c8781ef94ec0478e051fe718f0855, type: 3}
    - {fileID: 4159887834088517296, guid: a44c8781ef94ec0478e051fe718f0855, type: 3}
    - {fileID: -2603635332467638465, guid: a44c8781ef94ec0478e051fe718f0855, type: 3}
    - {fileID: -3110557107038835652, guid: a44c8781ef94ec0478e051fe718f0855, type: 3}
    - {fileID: -6922275862079153077, guid: a44c8781ef94ec0478e051fe718f0855, type: 3}
    - {fileID: 8478801309755012359, guid: a44c8781ef94ec0478e051fe718f0855, type: 3}
    - {fileID: 8478801309755012359, guid: a44c8781ef94ec0478e051fe718f0855, type: 3}
  m_AnimationClipSettings:
    serializedVersion: 2
    m_AdditiveReferencePoseClip: {fileID: 0}
    m_AdditiveReferencePoseTime: 0
    m_StartTime: 0
    m_StopTime: 2.01
    m_OrientationOffsetY: 0
    m_Level: 0
    m_CycleOffset: 0
    m_HasAdditiveReferencePose: 0
    m_LoopTime: 1
    m_LoopBlend: 0
    m_LoopBlendOrientation: 0
    m_LoopBlendPositionY: 0
    m_LoopBlendPositionXZ: 0
    m_KeepOriginalOrientation: 0
    m_KeepOriginalPositionY: 1
    m_KeepOriginalPositionXZ: 0
    m_HeightFromFeet: 0
    m_Mirror: 0
  m_EditorCurves: []
  m_EulerEditorCurves: []
  m_HasGenericRootTransform: 0
  m_HasMotionFloatCurves: 0
  m_Events:
  - time: 0.27
    functionName: Attack
    data: 
    objectReferenceParameter: {fileID: 0}
    floatParameter: 0
    intParameter: 0
    messageOptions: 0
