%YAML 1.1
%TAG !u! tag:unity3d.com,2011:
--- !u!74 &7400000
AnimationClip:
  m_ObjectHideFlags: 0
  m_CorrespondingSourceObject: {fileID: 0}
  m_PrefabInstance: {fileID: 0}
  m_PrefabAsset: {fileID: 0}
  m_Name: Shotgunner_Stand
  serializedVersion: 6
  m_Legacy: 0
  m_Compressed: 0
  m_UseHighQualityCurve: 1
  m_RotationCurves: []
  m_CompressedRotationCurves: []
  m_EulerCurves: []
  m_PositionCurves: []
  m_ScaleCurves: []
  m_FloatCurves: []
  m_PPtrCurves:
  - curve:
    - time: 0
      value: {fileID: -668270124515094075, guid: 7d279bc0a2423834ebab6e20daf3a55d, type: 3}
    - time: 0.09
      value: {fileID: -949520708617243838, guid: 7d279bc0a2423834ebab6e20daf3a55d, type: 3}
    - time: 0.18
      value: {fileID: 3253499780313144131, guid: 7d279bc0a2423834ebab6e20daf3a55d, type: 3}
    - time: 0.27
      value: {fileID: -1475396501905186184, guid: 7d279bc0a2423834ebab6e20daf3a55d, type: 3}
    - time: 0.36
      value: {fileID: -2239646532233550166, guid: 7d279bc0a2423834ebab6e20daf3a55d, type: 3}
    - time: 0.45
      value: {fileID: -5034664112264527469, guid: 7d279bc0a2423834ebab6e20daf3a55d, type: 3}
    - time: 0.54
      value: {fileID: 7597550460750125148, guid: 7d279bc0a2423834ebab6e20daf3a55d, type: 3}
    - time: 0.63
      value: {fileID: 366215326660013886, guid: 7d279bc0a2423834ebab6e20daf3a55d, type: 3}
    - time: 0.72
      value: {fileID: 366215326660013886, guid: 7d279bc0a2423834ebab6e20daf3a55d, type: 3}
    attribute: m_Sprite
    path: 
    classID: 212
    script: {fileID: 0}
  m_SampleRate: 100
  m_WrapMode: 0
  m_Bounds:
    m_Center: {x: 0, y: 0, z: 0}
    m_Extent: {x: 0, y: 0, z: 0}
  m_ClipBindingConstant:
    genericBindings:
    - serializedVersion: 2
      path: 0
      attribute: 0
      script: {fileID: 0}
      typeID: 212
      customType: 23
      isPPtrCurve: 1
    pptrCurveMapping:
    - {fileID: -668270124515094075, guid: 7d279bc0a2423834ebab6e20daf3a55d, type: 3}
    - {fileID: -949520708617243838, guid: 7d279bc0a2423834ebab6e20daf3a55d, type: 3}
    - {fileID: 3253499780313144131, guid: 7d279bc0a2423834ebab6e20daf3a55d, type: 3}
    - {fileID: -1475396501905186184, guid: 7d279bc0a2423834ebab6e20daf3a55d, type: 3}
    - {fileID: -2239646532233550166, guid: 7d279bc0a2423834ebab6e20daf3a55d, type: 3}
    - {fileID: -5034664112264527469, guid: 7d279bc0a2423834ebab6e20daf3a55d, type: 3}
    - {fileID: 7597550460750125148, guid: 7d279bc0a2423834ebab6e20daf3a55d, type: 3}
    - {fileID: 366215326660013886, guid: 7d279bc0a2423834ebab6e20daf3a55d, type: 3}
    - {fileID: 366215326660013886, guid: 7d279bc0a2423834ebab6e20daf3a55d, type: 3}
  m_AnimationClipSettings:
    serializedVersion: 2
    m_AdditiveReferencePoseClip: {fileID: 0}
    m_AdditiveReferencePoseTime: 0
    m_StartTime: 0
    m_StopTime: 0.73
    m_OrientationOffsetY: 0
    m_Level: 0
    m_CycleOffset: 0
    m_HasAdditiveReferencePose: 0
    m_LoopTime: 1
    m_LoopBlend: 0
    m_LoopBlendOrientation: 0
    m_LoopBlendPositionY: 0
    m_LoopBlendPositionXZ: 0
    m_KeepOriginalOrientation: 0
    m_KeepOriginalPositionY: 1
    m_KeepOriginalPositionXZ: 0
    m_HeightFromFeet: 0
    m_Mirror: 0
  m_EditorCurves: []
  m_EulerEditorCurves: []
  m_HasGenericRootTransform: 0
  m_HasMotionFloatCurves: 0
  m_Events: []
