%YAML 1.1
%TAG !u! tag:unity3d.com,2011:
--- !u!74 &7400000
AnimationClip:
  m_ObjectHideFlags: 0
  m_CorrespondingSourceObject: {fileID: 0}
  m_PrefabInstance: {fileID: 0}
  m_PrefabAsset: {fileID: 0}
  m_Name: LightArmor_Attack
  serializedVersion: 6
  m_Legacy: 0
  m_Compressed: 0
  m_UseHighQualityCurve: 1
  m_RotationCurves: []
  m_CompressedRotationCurves: []
  m_EulerCurves: []
  m_PositionCurves: []
  m_ScaleCurves: []
  m_FloatCurves: []
  m_PPtrCurves:
  - curve:
    - time: 0
      value: {fileID: -1701190390282740391, guid: 91cce0e9ccd54a64186ae3d26c2bb3f4, type: 3}
    - time: 0.09
      value: {fileID: -8722752040845438164, guid: 91cce0e9ccd54a64186ae3d26c2bb3f4, type: 3}
    - time: 0.18
      value: {fileID: 6053526793060742287, guid: 91cce0e9ccd54a64186ae3d26c2bb3f4, type: 3}
    - time: 0.27
      value: {fileID: 2635842864115644985, guid: 91cce0e9ccd54a64186ae3d26c2bb3f4, type: 3}
    - time: 0.36
      value: {fileID: -8240957664616461315, guid: 91cce0e9ccd54a64186ae3d26c2bb3f4, type: 3}
    - time: 0.45
      value: {fileID: -6901358895456682703, guid: 91cce0e9ccd54a64186ae3d26c2bb3f4, type: 3}
    - time: 0.54
      value: {fileID: 2489182209092742424, guid: 91cce0e9ccd54a64186ae3d26c2bb3f4, type: 3}
    - time: 0.63
      value: {fileID: 3794025787039962003, guid: 91cce0e9ccd54a64186ae3d26c2bb3f4, type: 3}
    - time: 0.72
      value: {fileID: -1701190390282740391, guid: 91cce0e9ccd54a64186ae3d26c2bb3f4, type: 3}
    - time: 2
      value: {fileID: -1701190390282740391, guid: 91cce0e9ccd54a64186ae3d26c2bb3f4, type: 3}
    attribute: m_Sprite
    path: 
    classID: 212
    script: {fileID: 0}
  m_SampleRate: 100
  m_WrapMode: 0
  m_Bounds:
    m_Center: {x: 0, y: 0, z: 0}
    m_Extent: {x: 0, y: 0, z: 0}
  m_ClipBindingConstant:
    genericBindings:
    - serializedVersion: 2
      path: 0
      attribute: 0
      script: {fileID: 0}
      typeID: 212
      customType: 23
      isPPtrCurve: 1
    pptrCurveMapping:
    - {fileID: -1701190390282740391, guid: 91cce0e9ccd54a64186ae3d26c2bb3f4, type: 3}
    - {fileID: -8722752040845438164, guid: 91cce0e9ccd54a64186ae3d26c2bb3f4, type: 3}
    - {fileID: 6053526793060742287, guid: 91cce0e9ccd54a64186ae3d26c2bb3f4, type: 3}
    - {fileID: 2635842864115644985, guid: 91cce0e9ccd54a64186ae3d26c2bb3f4, type: 3}
    - {fileID: -8240957664616461315, guid: 91cce0e9ccd54a64186ae3d26c2bb3f4, type: 3}
    - {fileID: -6901358895456682703, guid: 91cce0e9ccd54a64186ae3d26c2bb3f4, type: 3}
    - {fileID: 2489182209092742424, guid: 91cce0e9ccd54a64186ae3d26c2bb3f4, type: 3}
    - {fileID: 3794025787039962003, guid: 91cce0e9ccd54a64186ae3d26c2bb3f4, type: 3}
    - {fileID: -1701190390282740391, guid: 91cce0e9ccd54a64186ae3d26c2bb3f4, type: 3}
    - {fileID: -1701190390282740391, guid: 91cce0e9ccd54a64186ae3d26c2bb3f4, type: 3}
  m_AnimationClipSettings:
    serializedVersion: 2
    m_AdditiveReferencePoseClip: {fileID: 0}
    m_AdditiveReferencePoseTime: 0
    m_StartTime: 0
    m_StopTime: 2.01
    m_OrientationOffsetY: 0
    m_Level: 0
    m_CycleOffset: 0
    m_HasAdditiveReferencePose: 0
    m_LoopTime: 1
    m_LoopBlend: 0
    m_LoopBlendOrientation: 0
    m_LoopBlendPositionY: 0
    m_LoopBlendPositionXZ: 0
    m_KeepOriginalOrientation: 0
    m_KeepOriginalPositionY: 1
    m_KeepOriginalPositionXZ: 0
    m_HeightFromFeet: 0
    m_Mirror: 0
  m_EditorCurves: []
  m_EulerEditorCurves: []
  m_HasGenericRootTransform: 0
  m_HasMotionFloatCurves: 0
  m_Events:
  - time: 0.36
    functionName: Attack
    data: 
    objectReferenceParameter: {fileID: 0}
    floatParameter: 0
    intParameter: 0
    messageOptions: 0
