%YAML 1.1
%TAG !u! tag:unity3d.com,2011:
--- !u!74 &7400000
AnimationClip:
  m_ObjectHideFlags: 0
  m_CorrespondingSourceObject: {fileID: 0}
  m_PrefabInstance: {fileID: 0}
  m_PrefabAsset: {fileID: 0}
  m_Name: Dead
  serializedVersion: 6
  m_Legacy: 0
  m_Compressed: 0
  m_UseHighQualityCurve: 1
  m_RotationCurves: []
  m_CompressedRotationCurves: []
  m_EulerCurves: []
  m_PositionCurves: []
  m_ScaleCurves: []
  m_FloatCurves: []
  m_PPtrCurves:
  - curve:
    - time: 0
      value: {fileID: 5017648421553768684, guid: c1bcbc8b6b0fb5e4d9f0facb47c95a30, type: 3}
    - time: 0.07
      value: {fileID: -3669581473905412157, guid: c1bcbc8b6b0fb5e4d9f0facb47c95a30, type: 3}
    - time: 0.14
      value: {fileID: 3636674043670251372, guid: c1bcbc8b6b0fb5e4d9f0facb47c95a30, type: 3}
    - time: 0.21
      value: {fileID: 3100544951718699951, guid: c1bcbc8b6b0fb5e4d9f0facb47c95a30, type: 3}
    - time: 0.28
      value: {fileID: -1196423383208216776, guid: c1bcbc8b6b0fb5e4d9f0facb47c95a30, type: 3}
    - time: 0.35
      value: {fileID: -5304560078041818703, guid: c1bcbc8b6b0fb5e4d9f0facb47c95a30, type: 3}
    - time: 0.42
      value: {fileID: 6233674065031497746, guid: c1bcbc8b6b0fb5e4d9f0facb47c95a30, type: 3}
    - time: 0.49
      value: {fileID: 2485664044975783594, guid: c1bcbc8b6b0fb5e4d9f0facb47c95a30, type: 3}
    - time: 0.56
      value: {fileID: 4496130238219110475, guid: c1bcbc8b6b0fb5e4d9f0facb47c95a30, type: 3}
    - time: 0.63
      value: {fileID: 9146091256032878597, guid: c1bcbc8b6b0fb5e4d9f0facb47c95a30, type: 3}
    - time: 0.7
      value: {fileID: -956432184404747808, guid: c1bcbc8b6b0fb5e4d9f0facb47c95a30, type: 3}
    - time: 0.77
      value: {fileID: 1281446298450905249, guid: c1bcbc8b6b0fb5e4d9f0facb47c95a30, type: 3}
    - time: 0.84
      value: {fileID: 1281446298450905249, guid: c1bcbc8b6b0fb5e4d9f0facb47c95a30, type: 3}
    attribute: m_Sprite
    path: 
    classID: 212
    script: {fileID: 0}
  m_SampleRate: 100
  m_WrapMode: 0
  m_Bounds:
    m_Center: {x: 0, y: 0, z: 0}
    m_Extent: {x: 0, y: 0, z: 0}
  m_ClipBindingConstant:
    genericBindings:
    - serializedVersion: 2
      path: 0
      attribute: 0
      script: {fileID: 0}
      typeID: 212
      customType: 23
      isPPtrCurve: 1
    pptrCurveMapping:
    - {fileID: 5017648421553768684, guid: c1bcbc8b6b0fb5e4d9f0facb47c95a30, type: 3}
    - {fileID: -3669581473905412157, guid: c1bcbc8b6b0fb5e4d9f0facb47c95a30, type: 3}
    - {fileID: 3636674043670251372, guid: c1bcbc8b6b0fb5e4d9f0facb47c95a30, type: 3}
    - {fileID: 3100544951718699951, guid: c1bcbc8b6b0fb5e4d9f0facb47c95a30, type: 3}
    - {fileID: -1196423383208216776, guid: c1bcbc8b6b0fb5e4d9f0facb47c95a30, type: 3}
    - {fileID: -5304560078041818703, guid: c1bcbc8b6b0fb5e4d9f0facb47c95a30, type: 3}
    - {fileID: 6233674065031497746, guid: c1bcbc8b6b0fb5e4d9f0facb47c95a30, type: 3}
    - {fileID: 2485664044975783594, guid: c1bcbc8b6b0fb5e4d9f0facb47c95a30, type: 3}
    - {fileID: 4496130238219110475, guid: c1bcbc8b6b0fb5e4d9f0facb47c95a30, type: 3}
    - {fileID: 9146091256032878597, guid: c1bcbc8b6b0fb5e4d9f0facb47c95a30, type: 3}
    - {fileID: -956432184404747808, guid: c1bcbc8b6b0fb5e4d9f0facb47c95a30, type: 3}
    - {fileID: 1281446298450905249, guid: c1bcbc8b6b0fb5e4d9f0facb47c95a30, type: 3}
    - {fileID: 1281446298450905249, guid: c1bcbc8b6b0fb5e4d9f0facb47c95a30, type: 3}
  m_AnimationClipSettings:
    serializedVersion: 2
    m_AdditiveReferencePoseClip: {fileID: 0}
    m_AdditiveReferencePoseTime: 0
    m_StartTime: 0
    m_StopTime: 0.84999996
    m_OrientationOffsetY: 0
    m_Level: 0
    m_CycleOffset: 0
    m_HasAdditiveReferencePose: 0
    m_LoopTime: 1
    m_LoopBlend: 0
    m_LoopBlendOrientation: 0
    m_LoopBlendPositionY: 0
    m_LoopBlendPositionXZ: 0
    m_KeepOriginalOrientation: 0
    m_KeepOriginalPositionY: 1
    m_KeepOriginalPositionXZ: 0
    m_HeightFromFeet: 0
    m_Mirror: 0
  m_EditorCurves: []
  m_EulerEditorCurves: []
  m_HasGenericRootTransform: 0
  m_HasMotionFloatCurves: 0
  m_Events: []
