%YAML 1.1
%TAG !u! tag:unity3d.com,2011:
--- !u!74 &7400000
AnimationClip:
  m_ObjectHideFlags: 0
  m_CorrespondingSourceObject: {fileID: 0}
  m_PrefabInstance: {fileID: 0}
  m_PrefabAsset: {fileID: 0}
  m_Name: 001B_Attack
  serializedVersion: 6
  m_Legacy: 0
  m_Compressed: 0
  m_UseHighQualityCurve: 1
  m_RotationCurves: []
  m_CompressedRotationCurves: []
  m_EulerCurves: []
  m_PositionCurves: []
  m_ScaleCurves: []
  m_FloatCurves: []
  m_PPtrCurves:
  - curve:
    - time: 0
      value: {fileID: 6810656603569898075, guid: 8055b94aa5296374facd2ee4b54e58bb, type: 3}
    - time: 0.09
      value: {fileID: -6130394477742125517, guid: 8055b94aa5296374facd2ee4b54e58bb, type: 3}
    - time: 0.18
      value: {fileID: -2884083186979286888, guid: 8055b94aa5296374facd2ee4b54e58bb, type: 3}
    - time: 0.27
      value: {fileID: 7542948093188323259, guid: 8055b94aa5296374facd2ee4b54e58bb, type: 3}
    - time: 0.36
      value: {fileID: 1644660557849615408, guid: 8055b94aa5296374facd2ee4b54e58bb, type: 3}
    - time: 0.45
      value: {fileID: -6657392449995981026, guid: 8055b94aa5296374facd2ee4b54e58bb, type: 3}
    - time: 0.54
      value: {fileID: 2045378165661107344, guid: 8055b94aa5296374facd2ee4b54e58bb, type: 3}
    - time: 0.63
      value: {fileID: 5035789904809688495, guid: 8055b94aa5296374facd2ee4b54e58bb, type: 3}
    - time: 0.72
      value: {fileID: -2222979650895190092, guid: 8055b94aa5296374facd2ee4b54e58bb, type: 3}
    - time: 0.81
      value: {fileID: -6985421132261407218, guid: 8055b94aa5296374facd2ee4b54e58bb, type: 3}
    - time: 0.9
      value: {fileID: 3393914023176561874, guid: 8055b94aa5296374facd2ee4b54e58bb, type: 3}
    - time: 0.99
      value: {fileID: -1713904968774756771, guid: 8055b94aa5296374facd2ee4b54e58bb, type: 3}
    - time: 1.08
      value: {fileID: 1061329555927366314, guid: 8055b94aa5296374facd2ee4b54e58bb, type: 3}
    - time: 1.17
      value: {fileID: -5232155331485024181, guid: 8055b94aa5296374facd2ee4b54e58bb, type: 3}
    - time: 1.26
      value: {fileID: -1131038455094295299, guid: 8055b94aa5296374facd2ee4b54e58bb, type: 3}
    - time: 1.35
      value: {fileID: -222791474927708630, guid: 8055b94aa5296374facd2ee4b54e58bb, type: 3}
    - time: 1.44
      value: {fileID: 1660316111256489256, guid: 8055b94aa5296374facd2ee4b54e58bb, type: 3}
    - time: 1.53
      value: {fileID: 9138748353411751655, guid: 8055b94aa5296374facd2ee4b54e58bb, type: 3}
    - time: 1.62
      value: {fileID: -2804750173244228739, guid: 8055b94aa5296374facd2ee4b54e58bb, type: 3}
    - time: 1.71
      value: {fileID: -4022805141509195665, guid: 8055b94aa5296374facd2ee4b54e58bb, type: 3}
    - time: 1.8
      value: {fileID: 7999515112112255135, guid: 8055b94aa5296374facd2ee4b54e58bb, type: 3}
    - time: 1.89
      value: {fileID: 350127795894443864, guid: 8055b94aa5296374facd2ee4b54e58bb, type: 3}
    - time: 1.98
      value: {fileID: -3803014647195087783, guid: 8055b94aa5296374facd2ee4b54e58bb, type: 3}
    - time: 2.07
      value: {fileID: -1602110641501915007, guid: 8055b94aa5296374facd2ee4b54e58bb, type: 3}
    - time: 2.16
      value: {fileID: -5784931090309342917, guid: 8055b94aa5296374facd2ee4b54e58bb, type: 3}
    - time: 2.25
      value: {fileID: -423753750722760003, guid: 8055b94aa5296374facd2ee4b54e58bb, type: 3}
    - time: 2.34
      value: {fileID: -4419471708996305363, guid: 8055b94aa5296374facd2ee4b54e58bb, type: 3}
    attribute: m_Sprite
    path: 
    classID: 212
    script: {fileID: 0}
  m_SampleRate: 100
  m_WrapMode: 0
  m_Bounds:
    m_Center: {x: 0, y: 0, z: 0}
    m_Extent: {x: 0, y: 0, z: 0}
  m_ClipBindingConstant:
    genericBindings:
    - serializedVersion: 2
      path: 0
      attribute: 0
      script: {fileID: 0}
      typeID: 212
      customType: 23
      isPPtrCurve: 1
    pptrCurveMapping:
    - {fileID: 6810656603569898075, guid: 8055b94aa5296374facd2ee4b54e58bb, type: 3}
    - {fileID: -6130394477742125517, guid: 8055b94aa5296374facd2ee4b54e58bb, type: 3}
    - {fileID: -2884083186979286888, guid: 8055b94aa5296374facd2ee4b54e58bb, type: 3}
    - {fileID: 7542948093188323259, guid: 8055b94aa5296374facd2ee4b54e58bb, type: 3}
    - {fileID: 1644660557849615408, guid: 8055b94aa5296374facd2ee4b54e58bb, type: 3}
    - {fileID: -6657392449995981026, guid: 8055b94aa5296374facd2ee4b54e58bb, type: 3}
    - {fileID: 2045378165661107344, guid: 8055b94aa5296374facd2ee4b54e58bb, type: 3}
    - {fileID: 5035789904809688495, guid: 8055b94aa5296374facd2ee4b54e58bb, type: 3}
    - {fileID: -2222979650895190092, guid: 8055b94aa5296374facd2ee4b54e58bb, type: 3}
    - {fileID: -6985421132261407218, guid: 8055b94aa5296374facd2ee4b54e58bb, type: 3}
    - {fileID: 3393914023176561874, guid: 8055b94aa5296374facd2ee4b54e58bb, type: 3}
    - {fileID: -1713904968774756771, guid: 8055b94aa5296374facd2ee4b54e58bb, type: 3}
    - {fileID: 1061329555927366314, guid: 8055b94aa5296374facd2ee4b54e58bb, type: 3}
    - {fileID: -5232155331485024181, guid: 8055b94aa5296374facd2ee4b54e58bb, type: 3}
    - {fileID: -1131038455094295299, guid: 8055b94aa5296374facd2ee4b54e58bb, type: 3}
    - {fileID: -222791474927708630, guid: 8055b94aa5296374facd2ee4b54e58bb, type: 3}
    - {fileID: 1660316111256489256, guid: 8055b94aa5296374facd2ee4b54e58bb, type: 3}
    - {fileID: 9138748353411751655, guid: 8055b94aa5296374facd2ee4b54e58bb, type: 3}
    - {fileID: -2804750173244228739, guid: 8055b94aa5296374facd2ee4b54e58bb, type: 3}
    - {fileID: -4022805141509195665, guid: 8055b94aa5296374facd2ee4b54e58bb, type: 3}
    - {fileID: 7999515112112255135, guid: 8055b94aa5296374facd2ee4b54e58bb, type: 3}
    - {fileID: 350127795894443864, guid: 8055b94aa5296374facd2ee4b54e58bb, type: 3}
    - {fileID: -3803014647195087783, guid: 8055b94aa5296374facd2ee4b54e58bb, type: 3}
    - {fileID: -1602110641501915007, guid: 8055b94aa5296374facd2ee4b54e58bb, type: 3}
    - {fileID: -5784931090309342917, guid: 8055b94aa5296374facd2ee4b54e58bb, type: 3}
    - {fileID: -423753750722760003, guid: 8055b94aa5296374facd2ee4b54e58bb, type: 3}
    - {fileID: -4419471708996305363, guid: 8055b94aa5296374facd2ee4b54e58bb, type: 3}
  m_AnimationClipSettings:
    serializedVersion: 2
    m_AdditiveReferencePoseClip: {fileID: 0}
    m_AdditiveReferencePoseTime: 0
    m_StartTime: 0
    m_StopTime: 2.35
    m_OrientationOffsetY: 0
    m_Level: 0
    m_CycleOffset: 0
    m_HasAdditiveReferencePose: 0
    m_LoopTime: 1
    m_LoopBlend: 0
    m_LoopBlendOrientation: 0
    m_LoopBlendPositionY: 0
    m_LoopBlendPositionXZ: 0
    m_KeepOriginalOrientation: 0
    m_KeepOriginalPositionY: 1
    m_KeepOriginalPositionXZ: 0
    m_HeightFromFeet: 0
    m_Mirror: 0
  m_EditorCurves: []
  m_EulerEditorCurves: []
  m_HasGenericRootTransform: 0
  m_HasMotionFloatCurves: 0
  m_Events: []
