%YAML 1.1
%TAG !u! tag:unity3d.com,2011:
--- !u!74 &7400000
AnimationClip:
  m_ObjectHideFlags: 0
  m_CorrespondingSourceObject: {fileID: 0}
  m_PrefabInstance: {fileID: 0}
  m_PrefabAsset: {fileID: 0}
  m_Name: Gas_Destroy
  serializedVersion: 6
  m_Legacy: 0
  m_Compressed: 0
  m_UseHighQualityCurve: 1
  m_RotationCurves: []
  m_CompressedRotationCurves: []
  m_EulerCurves: []
  m_PositionCurves: []
  m_ScaleCurves: []
  m_FloatCurves: []
  m_PPtrCurves:
  - curve:
    - time: 0
      value: {fileID: 8283885278408833752, guid: ff0e6c07bdfd84e49a033a084ed20df5, type: 3}
    - time: 0.07
      value: {fileID: 8416015597210939672, guid: ff0e6c07bdfd84e49a033a084ed20df5, type: 3}
    - time: 0.13
      value: {fileID: -3605203903341457752, guid: ff0e6c07bdfd84e49a033a084ed20df5, type: 3}
    - time: 0.2
      value: {fileID: 3174324719264230356, guid: ff0e6c07bdfd84e49a033a084ed20df5, type: 3}
    - time: 0.27
      value: {fileID: -9220662019219526637, guid: ff0e6c07bdfd84e49a033a084ed20df5, type: 3}
    - time: 0.34
      value: {fileID: -3339469736009620207, guid: ff0e6c07bdfd84e49a033a084ed20df5, type: 3}
    - time: 0.4
      value: {fileID: 2710753845998155785, guid: ff0e6c07bdfd84e49a033a084ed20df5, type: 3}
    - time: 0.47
      value: {fileID: -8723783773963649752, guid: ff0e6c07bdfd84e49a033a084ed20df5, type: 3}
    - time: 0.54
      value: {fileID: -916801544433480760, guid: ff0e6c07bdfd84e49a033a084ed20df5, type: 3}
    - time: 0.61
      value: {fileID: 1888542624420309753, guid: ff0e6c07bdfd84e49a033a084ed20df5, type: 3}
    - time: 0.67
      value: {fileID: -2262377211145961778, guid: ff0e6c07bdfd84e49a033a084ed20df5, type: 3}
    - time: 0.74
      value: {fileID: -2262377211145961778, guid: ff0e6c07bdfd84e49a033a084ed20df5, type: 3}
    attribute: m_Sprite
    path: 
    classID: 212
    script: {fileID: 0}
  m_SampleRate: 100
  m_WrapMode: 0
  m_Bounds:
    m_Center: {x: 0, y: 0, z: 0}
    m_Extent: {x: 0, y: 0, z: 0}
  m_ClipBindingConstant:
    genericBindings:
    - serializedVersion: 2
      path: 0
      attribute: 0
      script: {fileID: 0}
      typeID: 212
      customType: 23
      isPPtrCurve: 1
    pptrCurveMapping:
    - {fileID: 8283885278408833752, guid: ff0e6c07bdfd84e49a033a084ed20df5, type: 3}
    - {fileID: 8416015597210939672, guid: ff0e6c07bdfd84e49a033a084ed20df5, type: 3}
    - {fileID: -3605203903341457752, guid: ff0e6c07bdfd84e49a033a084ed20df5, type: 3}
    - {fileID: 3174324719264230356, guid: ff0e6c07bdfd84e49a033a084ed20df5, type: 3}
    - {fileID: -9220662019219526637, guid: ff0e6c07bdfd84e49a033a084ed20df5, type: 3}
    - {fileID: -3339469736009620207, guid: ff0e6c07bdfd84e49a033a084ed20df5, type: 3}
    - {fileID: 2710753845998155785, guid: ff0e6c07bdfd84e49a033a084ed20df5, type: 3}
    - {fileID: -8723783773963649752, guid: ff0e6c07bdfd84e49a033a084ed20df5, type: 3}
    - {fileID: -916801544433480760, guid: ff0e6c07bdfd84e49a033a084ed20df5, type: 3}
    - {fileID: 1888542624420309753, guid: ff0e6c07bdfd84e49a033a084ed20df5, type: 3}
    - {fileID: -2262377211145961778, guid: ff0e6c07bdfd84e49a033a084ed20df5, type: 3}
    - {fileID: -2262377211145961778, guid: ff0e6c07bdfd84e49a033a084ed20df5, type: 3}
  m_AnimationClipSettings:
    serializedVersion: 2
    m_AdditiveReferencePoseClip: {fileID: 0}
    m_AdditiveReferencePoseTime: 0
    m_StartTime: 0
    m_StopTime: 0.75
    m_OrientationOffsetY: 0
    m_Level: 0
    m_CycleOffset: 0
    m_HasAdditiveReferencePose: 0
    m_LoopTime: 0
    m_LoopBlend: 0
    m_LoopBlendOrientation: 0
    m_LoopBlendPositionY: 0
    m_LoopBlendPositionXZ: 0
    m_KeepOriginalOrientation: 0
    m_KeepOriginalPositionY: 1
    m_KeepOriginalPositionXZ: 0
    m_HeightFromFeet: 0
    m_Mirror: 0
  m_EditorCurves: []
  m_EulerEditorCurves: []
  m_HasGenericRootTransform: 0
  m_HasMotionFloatCurves: 0
  m_Events: []
