%YAML 1.1
%TAG !u! tag:unity3d.com,2011:
--- !u!74 &7400000
AnimationClip:
  m_ObjectHideFlags: 0
  m_CorrespondingSourceObject: {fileID: 0}
  m_PrefabInstance: {fileID: 0}
  m_PrefabAsset: {fileID: 0}
  m_Name: 007_Heal
  serializedVersion: 6
  m_Legacy: 0
  m_Compressed: 0
  m_UseHighQualityCurve: 1
  m_RotationCurves: []
  m_CompressedRotationCurves: []
  m_EulerCurves: []
  m_PositionCurves: []
  m_ScaleCurves: []
  m_FloatCurves: []
  m_PPtrCurves:
  - curve:
    - time: 0
      value: {fileID: 6806531929142422244, guid: 7f6a55f9ac8e6534caa80a11c7f48383, type: 3}
    - time: 0.1
      value: {fileID: -6035309213613851374, guid: 7f6a55f9ac8e6534caa80a11c7f48383, type: 3}
    - time: 0.2
      value: {fileID: 6118440833123266671, guid: 7f6a55f9ac8e6534caa80a11c7f48383, type: 3}
    - time: 0.3
      value: {fileID: 5746242248280288401, guid: 7f6a55f9ac8e6534caa80a11c7f48383, type: 3}
    - time: 0.4
      value: {fileID: -3541441107257539136, guid: 7f6a55f9ac8e6534caa80a11c7f48383, type: 3}
    - time: 0.5
      value: {fileID: -1765118433819226562, guid: 7f6a55f9ac8e6534caa80a11c7f48383, type: 3}
    - time: 0.6
      value: {fileID: -1782460754122094207, guid: 7f6a55f9ac8e6534caa80a11c7f48383, type: 3}
    - time: 0.7
      value: {fileID: -5167258623779466600, guid: 7f6a55f9ac8e6534caa80a11c7f48383, type: 3}
    - time: 0.8
      value: {fileID: 3220906494345621067, guid: 7f6a55f9ac8e6534caa80a11c7f48383, type: 3}
    - time: 0.9
      value: {fileID: -8306879599654534505, guid: 7f6a55f9ac8e6534caa80a11c7f48383, type: 3}
    - time: 1
      value: {fileID: 791499847849778876, guid: 7f6a55f9ac8e6534caa80a11c7f48383, type: 3}
    - time: 1.1
      value: {fileID: -908270911204617868, guid: 7f6a55f9ac8e6534caa80a11c7f48383, type: 3}
    - time: 1.2
      value: {fileID: -4651148764770810053, guid: 7f6a55f9ac8e6534caa80a11c7f48383, type: 3}
    - time: 1.3
      value: {fileID: 2358706086194960200, guid: 7f6a55f9ac8e6534caa80a11c7f48383, type: 3}
    - time: 1.4
      value: {fileID: -5967934337315861823, guid: 7f6a55f9ac8e6534caa80a11c7f48383, type: 3}
    - time: 1.5
      value: {fileID: 6806531929142422244, guid: 7f6a55f9ac8e6534caa80a11c7f48383, type: 3}
    - time: 3
      value: {fileID: 6806531929142422244, guid: 7f6a55f9ac8e6534caa80a11c7f48383, type: 3}
    attribute: m_Sprite
    path: 
    classID: 212
    script: {fileID: 0}
  m_SampleRate: 100
  m_WrapMode: 0
  m_Bounds:
    m_Center: {x: 0, y: 0, z: 0}
    m_Extent: {x: 0, y: 0, z: 0}
  m_ClipBindingConstant:
    genericBindings:
    - serializedVersion: 2
      path: 0
      attribute: 0
      script: {fileID: 0}
      typeID: 212
      customType: 23
      isPPtrCurve: 1
    pptrCurveMapping:
    - {fileID: 6806531929142422244, guid: 7f6a55f9ac8e6534caa80a11c7f48383, type: 3}
    - {fileID: -6035309213613851374, guid: 7f6a55f9ac8e6534caa80a11c7f48383, type: 3}
    - {fileID: 6118440833123266671, guid: 7f6a55f9ac8e6534caa80a11c7f48383, type: 3}
    - {fileID: 5746242248280288401, guid: 7f6a55f9ac8e6534caa80a11c7f48383, type: 3}
    - {fileID: -3541441107257539136, guid: 7f6a55f9ac8e6534caa80a11c7f48383, type: 3}
    - {fileID: -1765118433819226562, guid: 7f6a55f9ac8e6534caa80a11c7f48383, type: 3}
    - {fileID: -1782460754122094207, guid: 7f6a55f9ac8e6534caa80a11c7f48383, type: 3}
    - {fileID: -5167258623779466600, guid: 7f6a55f9ac8e6534caa80a11c7f48383, type: 3}
    - {fileID: 3220906494345621067, guid: 7f6a55f9ac8e6534caa80a11c7f48383, type: 3}
    - {fileID: -8306879599654534505, guid: 7f6a55f9ac8e6534caa80a11c7f48383, type: 3}
    - {fileID: 791499847849778876, guid: 7f6a55f9ac8e6534caa80a11c7f48383, type: 3}
    - {fileID: -908270911204617868, guid: 7f6a55f9ac8e6534caa80a11c7f48383, type: 3}
    - {fileID: -4651148764770810053, guid: 7f6a55f9ac8e6534caa80a11c7f48383, type: 3}
    - {fileID: 2358706086194960200, guid: 7f6a55f9ac8e6534caa80a11c7f48383, type: 3}
    - {fileID: -5967934337315861823, guid: 7f6a55f9ac8e6534caa80a11c7f48383, type: 3}
    - {fileID: 6806531929142422244, guid: 7f6a55f9ac8e6534caa80a11c7f48383, type: 3}
    - {fileID: 6806531929142422244, guid: 7f6a55f9ac8e6534caa80a11c7f48383, type: 3}
  m_AnimationClipSettings:
    serializedVersion: 2
    m_AdditiveReferencePoseClip: {fileID: 0}
    m_AdditiveReferencePoseTime: 0
    m_StartTime: 0
    m_StopTime: 3.01
    m_OrientationOffsetY: 0
    m_Level: 0
    m_CycleOffset: 0
    m_HasAdditiveReferencePose: 0
    m_LoopTime: 1
    m_LoopBlend: 0
    m_LoopBlendOrientation: 0
    m_LoopBlendPositionY: 0
    m_LoopBlendPositionXZ: 0
    m_KeepOriginalOrientation: 0
    m_KeepOriginalPositionY: 1
    m_KeepOriginalPositionXZ: 0
    m_HeightFromFeet: 0
    m_Mirror: 0
  m_EditorCurves: []
  m_EulerEditorCurves: []
  m_HasGenericRootTransform: 0
  m_HasMotionFloatCurves: 0
  m_Events:
  - time: 0.6
    functionName: Heal
    data: 
    objectReferenceParameter: {fileID: 0}
    floatParameter: 0
    intParameter: 0
    messageOptions: 0
