%YAML 1.1
%TAG !u! tag:unity3d.com,2011:
--- !u!74 &7400000
AnimationClip:
  m_ObjectHideFlags: 0
  m_CorrespondingSourceObject: {fileID: 0}
  m_PrefabInstance: {fileID: 0}
  m_PrefabAsset: {fileID: 0}
  m_Name: New Animation
  serializedVersion: 6
  m_Legacy: 0
  m_Compressed: 0
  m_UseHighQualityCurve: 1
  m_RotationCurves: []
  m_CompressedRotationCurves: []
  m_EulerCurves: []
  m_PositionCurves: []
  m_ScaleCurves: []
  m_FloatCurves: []
  m_PPtrCurves:
  - curve:
    - time: 0
      value: {fileID: 2514461389977411031, guid: efc259cb69936364eb0fc236f87c025f, type: 3}
    - time: 0.1
      value: {fileID: 2623318668603483030, guid: efc259cb69936364eb0fc236f87c025f, type: 3}
    - time: 0.2
      value: {fileID: 537293760593372597, guid: efc259cb69936364eb0fc236f87c025f, type: 3}
    - time: 0.31
      value: {fileID: -1436745122267867738, guid: efc259cb69936364eb0fc236f87c025f, type: 3}
    - time: 0.41
      value: {fileID: -7826077168950560330, guid: efc259cb69936364eb0fc236f87c025f, type: 3}
    - time: 0.51
      value: {fileID: -8894431239921436847, guid: efc259cb69936364eb0fc236f87c025f, type: 3}
    - time: 0.61
      value: {fileID: -3363310356019871927, guid: efc259cb69936364eb0fc236f87c025f, type: 3}
    - time: 0.71
      value: {fileID: 4848028126860765675, guid: efc259cb69936364eb0fc236f87c025f, type: 3}
    - time: 0.81
      value: {fileID: 1205644538497499403, guid: efc259cb69936364eb0fc236f87c025f, type: 3}
    - time: 0.92
      value: {fileID: 6275669697029654782, guid: efc259cb69936364eb0fc236f87c025f, type: 3}
    - time: 1.02
      value: {fileID: -4080338916086268244, guid: efc259cb69936364eb0fc236f87c025f, type: 3}
    - time: 1.12
      value: {fileID: 4839653636128195226, guid: efc259cb69936364eb0fc236f87c025f, type: 3}
    - time: 1.22
      value: {fileID: -8589518116272955655, guid: efc259cb69936364eb0fc236f87c025f, type: 3}
    - time: 1.32
      value: {fileID: -7472675022378207830, guid: efc259cb69936364eb0fc236f87c025f, type: 3}
    - time: 1.42
      value: {fileID: 6765486096705407485, guid: efc259cb69936364eb0fc236f87c025f, type: 3}
    - time: 1.53
      value: {fileID: 7189597045422142680, guid: efc259cb69936364eb0fc236f87c025f, type: 3}
    - time: 1.63
      value: {fileID: -2797145839068098205, guid: efc259cb69936364eb0fc236f87c025f, type: 3}
    - time: 1.73
      value: {fileID: 4056417220920411590, guid: efc259cb69936364eb0fc236f87c025f, type: 3}
    - time: 1.83
      value: {fileID: 8323756497705835692, guid: efc259cb69936364eb0fc236f87c025f, type: 3}
    - time: 1.93
      value: {fileID: -1164883663613490994, guid: efc259cb69936364eb0fc236f87c025f, type: 3}
    - time: 2.03
      value: {fileID: 5481506352479868780, guid: efc259cb69936364eb0fc236f87c025f, type: 3}
    - time: 2.14
      value: {fileID: 2432060481251269023, guid: efc259cb69936364eb0fc236f87c025f, type: 3}
    - time: 2.24
      value: {fileID: -726908023755153685, guid: efc259cb69936364eb0fc236f87c025f, type: 3}
    - time: 2.34
      value: {fileID: 3838909548768264741, guid: efc259cb69936364eb0fc236f87c025f, type: 3}
    - time: 2.44
      value: {fileID: 5982767942540839007, guid: efc259cb69936364eb0fc236f87c025f, type: 3}
    - time: 2.54
      value: {fileID: -1333142310387938880, guid: efc259cb69936364eb0fc236f87c025f, type: 3}
    - time: 2.64
      value: {fileID: -3886024132188645698, guid: efc259cb69936364eb0fc236f87c025f, type: 3}
    - time: 2.75
      value: {fileID: -8116390412088538146, guid: efc259cb69936364eb0fc236f87c025f, type: 3}
    - time: 2.85
      value: {fileID: -6406797150115211145, guid: efc259cb69936364eb0fc236f87c025f, type: 3}
    - time: 2.95
      value: {fileID: -7661365387318184861, guid: efc259cb69936364eb0fc236f87c025f, type: 3}
    - time: 3.05
      value: {fileID: -5956237662996600586, guid: efc259cb69936364eb0fc236f87c025f, type: 3}
    - time: 3.15
      value: {fileID: -8240686826871435727, guid: efc259cb69936364eb0fc236f87c025f, type: 3}
    - time: 3.25
      value: {fileID: 1346441794754560076, guid: efc259cb69936364eb0fc236f87c025f, type: 3}
    - time: 3.36
      value: {fileID: -637578899726184863, guid: efc259cb69936364eb0fc236f87c025f, type: 3}
    - time: 3.46
      value: {fileID: 1301306809766690946, guid: efc259cb69936364eb0fc236f87c025f, type: 3}
    - time: 3.56
      value: {fileID: 4748245962845328457, guid: efc259cb69936364eb0fc236f87c025f, type: 3}
    - time: 3.66
      value: {fileID: 2462860759614172541, guid: efc259cb69936364eb0fc236f87c025f, type: 3}
    - time: 3.76
      value: {fileID: 7490940400809698874, guid: efc259cb69936364eb0fc236f87c025f, type: 3}
    - time: 3.86
      value: {fileID: -364209364656089183, guid: efc259cb69936364eb0fc236f87c025f, type: 3}
    - time: 3.97
      value: {fileID: -4330526862356299201, guid: efc259cb69936364eb0fc236f87c025f, type: 3}
    - time: 4.07
      value: {fileID: -2929655782211791873, guid: efc259cb69936364eb0fc236f87c025f, type: 3}
    - time: 4.17
      value: {fileID: -6836096304464556544, guid: efc259cb69936364eb0fc236f87c025f, type: 3}
    - time: 4.27
      value: {fileID: 4916831811452463012, guid: efc259cb69936364eb0fc236f87c025f, type: 3}
    - time: 4.37
      value: {fileID: 4283800688480555429, guid: efc259cb69936364eb0fc236f87c025f, type: 3}
    - time: 4.47
      value: {fileID: 7379078072827854368, guid: efc259cb69936364eb0fc236f87c025f, type: 3}
    - time: 4.58
      value: {fileID: 7407741414786843114, guid: efc259cb69936364eb0fc236f87c025f, type: 3}
    - time: 4.68
      value: {fileID: 8133389326937917147, guid: efc259cb69936364eb0fc236f87c025f, type: 3}
    - time: 4.78
      value: {fileID: -3342211399292319378, guid: efc259cb69936364eb0fc236f87c025f, type: 3}
    - time: 4.88
      value: {fileID: -822963332049104664, guid: efc259cb69936364eb0fc236f87c025f, type: 3}
    - time: 4.98
      value: {fileID: 3575412068457716238, guid: efc259cb69936364eb0fc236f87c025f, type: 3}
    - time: 5.08
      value: {fileID: 407698167952798763, guid: efc259cb69936364eb0fc236f87c025f, type: 3}
    - time: 5.19
      value: {fileID: 450862639044895778, guid: efc259cb69936364eb0fc236f87c025f, type: 3}
    - time: 5.29
      value: {fileID: 8284128003067947353, guid: efc259cb69936364eb0fc236f87c025f, type: 3}
    - time: 5.39
      value: {fileID: 294870631473745229, guid: efc259cb69936364eb0fc236f87c025f, type: 3}
    - time: 5.49
      value: {fileID: 4612073889767506389, guid: efc259cb69936364eb0fc236f87c025f, type: 3}
    - time: 5.59
      value: {fileID: -6013282447284730918, guid: efc259cb69936364eb0fc236f87c025f, type: 3}
    - time: 5.69
      value: {fileID: 8774920802347647752, guid: efc259cb69936364eb0fc236f87c025f, type: 3}
    - time: 5.8
      value: {fileID: -2036503818620287310, guid: efc259cb69936364eb0fc236f87c025f, type: 3}
    - time: 5.9
      value: {fileID: -2711750685386841880, guid: efc259cb69936364eb0fc236f87c025f, type: 3}
    - time: 6
      value: {fileID: 973320806389030310, guid: efc259cb69936364eb0fc236f87c025f, type: 3}
    attribute: m_Sprite
    path: 
    classID: 114
    script: {fileID: 11500000, guid: fe87c0e1cc204ed48ad3b37840f39efc, type: 3}
  m_SampleRate: 100
  m_WrapMode: 0
  m_Bounds:
    m_Center: {x: 0, y: 0, z: 0}
    m_Extent: {x: 0, y: 0, z: 0}
  m_ClipBindingConstant:
    genericBindings:
    - serializedVersion: 2
      path: 0
      attribute: 2015549526
      script: {fileID: 11500000, guid: fe87c0e1cc204ed48ad3b37840f39efc, type: 3}
      typeID: 114
      customType: 0
      isPPtrCurve: 1
    pptrCurveMapping:
    - {fileID: 2514461389977411031, guid: efc259cb69936364eb0fc236f87c025f, type: 3}
    - {fileID: 2623318668603483030, guid: efc259cb69936364eb0fc236f87c025f, type: 3}
    - {fileID: 537293760593372597, guid: efc259cb69936364eb0fc236f87c025f, type: 3}
    - {fileID: -1436745122267867738, guid: efc259cb69936364eb0fc236f87c025f, type: 3}
    - {fileID: -7826077168950560330, guid: efc259cb69936364eb0fc236f87c025f, type: 3}
    - {fileID: -8894431239921436847, guid: efc259cb69936364eb0fc236f87c025f, type: 3}
    - {fileID: -3363310356019871927, guid: efc259cb69936364eb0fc236f87c025f, type: 3}
    - {fileID: 4848028126860765675, guid: efc259cb69936364eb0fc236f87c025f, type: 3}
    - {fileID: 1205644538497499403, guid: efc259cb69936364eb0fc236f87c025f, type: 3}
    - {fileID: 6275669697029654782, guid: efc259cb69936364eb0fc236f87c025f, type: 3}
    - {fileID: -4080338916086268244, guid: efc259cb69936364eb0fc236f87c025f, type: 3}
    - {fileID: 4839653636128195226, guid: efc259cb69936364eb0fc236f87c025f, type: 3}
    - {fileID: -8589518116272955655, guid: efc259cb69936364eb0fc236f87c025f, type: 3}
    - {fileID: -7472675022378207830, guid: efc259cb69936364eb0fc236f87c025f, type: 3}
    - {fileID: 6765486096705407485, guid: efc259cb69936364eb0fc236f87c025f, type: 3}
    - {fileID: 7189597045422142680, guid: efc259cb69936364eb0fc236f87c025f, type: 3}
    - {fileID: -2797145839068098205, guid: efc259cb69936364eb0fc236f87c025f, type: 3}
    - {fileID: 4056417220920411590, guid: efc259cb69936364eb0fc236f87c025f, type: 3}
    - {fileID: 8323756497705835692, guid: efc259cb69936364eb0fc236f87c025f, type: 3}
    - {fileID: -1164883663613490994, guid: efc259cb69936364eb0fc236f87c025f, type: 3}
    - {fileID: 5481506352479868780, guid: efc259cb69936364eb0fc236f87c025f, type: 3}
    - {fileID: 2432060481251269023, guid: efc259cb69936364eb0fc236f87c025f, type: 3}
    - {fileID: -726908023755153685, guid: efc259cb69936364eb0fc236f87c025f, type: 3}
    - {fileID: 3838909548768264741, guid: efc259cb69936364eb0fc236f87c025f, type: 3}
    - {fileID: 5982767942540839007, guid: efc259cb69936364eb0fc236f87c025f, type: 3}
    - {fileID: -1333142310387938880, guid: efc259cb69936364eb0fc236f87c025f, type: 3}
    - {fileID: -3886024132188645698, guid: efc259cb69936364eb0fc236f87c025f, type: 3}
    - {fileID: -8116390412088538146, guid: efc259cb69936364eb0fc236f87c025f, type: 3}
    - {fileID: -6406797150115211145, guid: efc259cb69936364eb0fc236f87c025f, type: 3}
    - {fileID: -7661365387318184861, guid: efc259cb69936364eb0fc236f87c025f, type: 3}
    - {fileID: -5956237662996600586, guid: efc259cb69936364eb0fc236f87c025f, type: 3}
    - {fileID: -8240686826871435727, guid: efc259cb69936364eb0fc236f87c025f, type: 3}
    - {fileID: 1346441794754560076, guid: efc259cb69936364eb0fc236f87c025f, type: 3}
    - {fileID: -637578899726184863, guid: efc259cb69936364eb0fc236f87c025f, type: 3}
    - {fileID: 1301306809766690946, guid: efc259cb69936364eb0fc236f87c025f, type: 3}
    - {fileID: 4748245962845328457, guid: efc259cb69936364eb0fc236f87c025f, type: 3}
    - {fileID: 2462860759614172541, guid: efc259cb69936364eb0fc236f87c025f, type: 3}
    - {fileID: 7490940400809698874, guid: efc259cb69936364eb0fc236f87c025f, type: 3}
    - {fileID: -364209364656089183, guid: efc259cb69936364eb0fc236f87c025f, type: 3}
    - {fileID: -4330526862356299201, guid: efc259cb69936364eb0fc236f87c025f, type: 3}
    - {fileID: -2929655782211791873, guid: efc259cb69936364eb0fc236f87c025f, type: 3}
    - {fileID: -6836096304464556544, guid: efc259cb69936364eb0fc236f87c025f, type: 3}
    - {fileID: 4916831811452463012, guid: efc259cb69936364eb0fc236f87c025f, type: 3}
    - {fileID: 4283800688480555429, guid: efc259cb69936364eb0fc236f87c025f, type: 3}
    - {fileID: 7379078072827854368, guid: efc259cb69936364eb0fc236f87c025f, type: 3}
    - {fileID: 7407741414786843114, guid: efc259cb69936364eb0fc236f87c025f, type: 3}
    - {fileID: 8133389326937917147, guid: efc259cb69936364eb0fc236f87c025f, type: 3}
    - {fileID: -3342211399292319378, guid: efc259cb69936364eb0fc236f87c025f, type: 3}
    - {fileID: -822963332049104664, guid: efc259cb69936364eb0fc236f87c025f, type: 3}
    - {fileID: 3575412068457716238, guid: efc259cb69936364eb0fc236f87c025f, type: 3}
    - {fileID: 407698167952798763, guid: efc259cb69936364eb0fc236f87c025f, type: 3}
    - {fileID: 450862639044895778, guid: efc259cb69936364eb0fc236f87c025f, type: 3}
    - {fileID: 8284128003067947353, guid: efc259cb69936364eb0fc236f87c025f, type: 3}
    - {fileID: 294870631473745229, guid: efc259cb69936364eb0fc236f87c025f, type: 3}
    - {fileID: 4612073889767506389, guid: efc259cb69936364eb0fc236f87c025f, type: 3}
    - {fileID: -6013282447284730918, guid: efc259cb69936364eb0fc236f87c025f, type: 3}
    - {fileID: 8774920802347647752, guid: efc259cb69936364eb0fc236f87c025f, type: 3}
    - {fileID: -2036503818620287310, guid: efc259cb69936364eb0fc236f87c025f, type: 3}
    - {fileID: -2711750685386841880, guid: efc259cb69936364eb0fc236f87c025f, type: 3}
    - {fileID: 973320806389030310, guid: efc259cb69936364eb0fc236f87c025f, type: 3}
  m_AnimationClipSettings:
    serializedVersion: 2
    m_AdditiveReferencePoseClip: {fileID: 0}
    m_AdditiveReferencePoseTime: 0
    m_StartTime: 0
    m_StopTime: 6.01
    m_OrientationOffsetY: 0
    m_Level: 0
    m_CycleOffset: 0
    m_HasAdditiveReferencePose: 0
    m_LoopTime: 1
    m_LoopBlend: 0
    m_LoopBlendOrientation: 0
    m_LoopBlendPositionY: 0
    m_LoopBlendPositionXZ: 0
    m_KeepOriginalOrientation: 0
    m_KeepOriginalPositionY: 1
    m_KeepOriginalPositionXZ: 0
    m_HeightFromFeet: 0
    m_Mirror: 0
  m_EditorCurves: []
  m_EulerEditorCurves: []
  m_HasGenericRootTransform: 0
  m_HasMotionFloatCurves: 0
  m_Events: []
