%YAML 1.1
%TAG !u! tag:unity3d.com,2011:
--- !u!74 &7400000
AnimationClip:
  m_ObjectHideFlags: 0
  m_CorrespondingSourceObject: {fileID: 0}
  m_PrefabInstance: {fileID: 0}
  m_PrefabAsset: {fileID: 0}
  m_Name: a_GasWorker_Dead
  serializedVersion: 6
  m_Legacy: 0
  m_Compressed: 0
  m_UseHighQualityCurve: 1
  m_RotationCurves: []
  m_CompressedRotationCurves: []
  m_EulerCurves: []
  m_PositionCurves: []
  m_ScaleCurves: []
  m_FloatCurves: []
  m_PPtrCurves:
  - curve:
    - time: 0
      value: {fileID: 885214059537025863, guid: 58144b9e5ad5e754299d9c916cc7de68, type: 3}
    - time: 0.09
      value: {fileID: 5457280678348599169, guid: 58144b9e5ad5e754299d9c916cc7de68, type: 3}
    - time: 0.18
      value: {fileID: -4756886204575725448, guid: 58144b9e5ad5e754299d9c916cc7de68, type: 3}
    - time: 0.27
      value: {fileID: -8697382474450458281, guid: 58144b9e5ad5e754299d9c916cc7de68, type: 3}
    - time: 0.36
      value: {fileID: -133084929951489363, guid: 58144b9e5ad5e754299d9c916cc7de68, type: 3}
    - time: 0.45
      value: {fileID: -4503507062533595237, guid: 58144b9e5ad5e754299d9c916cc7de68, type: 3}
    - time: 0.54
      value: {fileID: 6199201817989457162, guid: 58144b9e5ad5e754299d9c916cc7de68, type: 3}
    - time: 0.63
      value: {fileID: 1227579794557301196, guid: 58144b9e5ad5e754299d9c916cc7de68, type: 3}
    - time: 0.72
      value: {fileID: -2788011303397545265, guid: 58144b9e5ad5e754299d9c916cc7de68, type: 3}
    - time: 0.81
      value: {fileID: 904587969421491399, guid: 58144b9e5ad5e754299d9c916cc7de68, type: 3}
    - time: 0.9
      value: {fileID: 1060833871993378274, guid: 58144b9e5ad5e754299d9c916cc7de68, type: 3}
    - time: 0.99
      value: {fileID: 1501681452375716492, guid: 58144b9e5ad5e754299d9c916cc7de68, type: 3}
    - time: 1.08
      value: {fileID: 1039039762071019238, guid: 58144b9e5ad5e754299d9c916cc7de68, type: 3}
    attribute: m_Sprite
    path: 
    classID: 212
    script: {fileID: 0}
  m_SampleRate: 100
  m_WrapMode: 0
  m_Bounds:
    m_Center: {x: 0, y: 0, z: 0}
    m_Extent: {x: 0, y: 0, z: 0}
  m_ClipBindingConstant:
    genericBindings:
    - serializedVersion: 2
      path: 0
      attribute: 0
      script: {fileID: 0}
      typeID: 212
      customType: 23
      isPPtrCurve: 1
    pptrCurveMapping:
    - {fileID: 885214059537025863, guid: 58144b9e5ad5e754299d9c916cc7de68, type: 3}
    - {fileID: 5457280678348599169, guid: 58144b9e5ad5e754299d9c916cc7de68, type: 3}
    - {fileID: -4756886204575725448, guid: 58144b9e5ad5e754299d9c916cc7de68, type: 3}
    - {fileID: -8697382474450458281, guid: 58144b9e5ad5e754299d9c916cc7de68, type: 3}
    - {fileID: -133084929951489363, guid: 58144b9e5ad5e754299d9c916cc7de68, type: 3}
    - {fileID: -4503507062533595237, guid: 58144b9e5ad5e754299d9c916cc7de68, type: 3}
    - {fileID: 6199201817989457162, guid: 58144b9e5ad5e754299d9c916cc7de68, type: 3}
    - {fileID: 1227579794557301196, guid: 58144b9e5ad5e754299d9c916cc7de68, type: 3}
    - {fileID: -2788011303397545265, guid: 58144b9e5ad5e754299d9c916cc7de68, type: 3}
    - {fileID: 904587969421491399, guid: 58144b9e5ad5e754299d9c916cc7de68, type: 3}
    - {fileID: 1060833871993378274, guid: 58144b9e5ad5e754299d9c916cc7de68, type: 3}
    - {fileID: 1501681452375716492, guid: 58144b9e5ad5e754299d9c916cc7de68, type: 3}
    - {fileID: 1039039762071019238, guid: 58144b9e5ad5e754299d9c916cc7de68, type: 3}
  m_AnimationClipSettings:
    serializedVersion: 2
    m_AdditiveReferencePoseClip: {fileID: 0}
    m_AdditiveReferencePoseTime: 0
    m_StartTime: 0
    m_StopTime: 1.09
    m_OrientationOffsetY: 0
    m_Level: 0
    m_CycleOffset: 0
    m_HasAdditiveReferencePose: 0
    m_LoopTime: 0
    m_LoopBlend: 0
    m_LoopBlendOrientation: 0
    m_LoopBlendPositionY: 0
    m_LoopBlendPositionXZ: 0
    m_KeepOriginalOrientation: 0
    m_KeepOriginalPositionY: 1
    m_KeepOriginalPositionXZ: 0
    m_HeightFromFeet: 0
    m_Mirror: 0
  m_EditorCurves: []
  m_EulerEditorCurves: []
  m_HasGenericRootTransform: 0
  m_HasMotionFloatCurves: 0
  m_Events: []
