%YAML 1.1
%TAG !u! tag:unity3d.com,2011:
--- !u!74 &7400000
AnimationClip:
  m_ObjectHideFlags: 0
  m_CorrespondingSourceObject: {fileID: 0}
  m_PrefabInstance: {fileID: 0}
  m_PrefabAsset: {fileID: 0}
  m_Name: a_Worker_Crystal
  serializedVersion: 6
  m_Legacy: 0
  m_Compressed: 0
  m_UseHighQualityCurve: 1
  m_RotationCurves: []
  m_CompressedRotationCurves: []
  m_EulerCurves: []
  m_PositionCurves: []
  m_ScaleCurves: []
  m_FloatCurves: []
  m_PPtrCurves:
  - curve:
    - time: 0
      value: {fileID: 1585006611627741352, guid: b473d4495d1f106478a985cffe19978b, type: 3}
    - time: 0.06
      value: {fileID: 8931442305773834613, guid: b473d4495d1f106478a985cffe19978b, type: 3}
    - time: 0.12
      value: {fileID: 8356113633191617523, guid: b473d4495d1f106478a985cffe19978b, type: 3}
    - time: 0.18
      value: {fileID: -5203755160685778530, guid: b473d4495d1f106478a985cffe19978b, type: 3}
    - time: 0.24
      value: {fileID: 617781085293298885, guid: b473d4495d1f106478a985cffe19978b, type: 3}
    - time: 0.3
      value: {fileID: -1285283358375370700, guid: b473d4495d1f106478a985cffe19978b, type: 3}
    - time: 0.36
      value: {fileID: -2720911716515023633, guid: b473d4495d1f106478a985cffe19978b, type: 3}
    - time: 0.42
      value: {fileID: 8493083347204727447, guid: b473d4495d1f106478a985cffe19978b, type: 3}
    - time: 0.48
      value: {fileID: -312437055680625097, guid: b473d4495d1f106478a985cffe19978b, type: 3}
    - time: 0.54
      value: {fileID: -3509897525517249459, guid: b473d4495d1f106478a985cffe19978b, type: 3}
    - time: 0.6
      value: {fileID: 7560400500751455271, guid: b473d4495d1f106478a985cffe19978b, type: 3}
    - time: 0.66
      value: {fileID: -910413791694232859, guid: b473d4495d1f106478a985cffe19978b, type: 3}
    - time: 0.72
      value: {fileID: -910413791694232859, guid: b473d4495d1f106478a985cffe19978b, type: 3}
    attribute: m_Sprite
    path: 
    classID: 212
    script: {fileID: 0}
  m_SampleRate: 100
  m_WrapMode: 0
  m_Bounds:
    m_Center: {x: 0, y: 0, z: 0}
    m_Extent: {x: 0, y: 0, z: 0}
  m_ClipBindingConstant:
    genericBindings:
    - serializedVersion: 2
      path: 0
      attribute: 0
      script: {fileID: 0}
      typeID: 212
      customType: 23
      isPPtrCurve: 1
    pptrCurveMapping:
    - {fileID: 1585006611627741352, guid: b473d4495d1f106478a985cffe19978b, type: 3}
    - {fileID: 8931442305773834613, guid: b473d4495d1f106478a985cffe19978b, type: 3}
    - {fileID: 8356113633191617523, guid: b473d4495d1f106478a985cffe19978b, type: 3}
    - {fileID: -5203755160685778530, guid: b473d4495d1f106478a985cffe19978b, type: 3}
    - {fileID: 617781085293298885, guid: b473d4495d1f106478a985cffe19978b, type: 3}
    - {fileID: -1285283358375370700, guid: b473d4495d1f106478a985cffe19978b, type: 3}
    - {fileID: -2720911716515023633, guid: b473d4495d1f106478a985cffe19978b, type: 3}
    - {fileID: 8493083347204727447, guid: b473d4495d1f106478a985cffe19978b, type: 3}
    - {fileID: -312437055680625097, guid: b473d4495d1f106478a985cffe19978b, type: 3}
    - {fileID: -3509897525517249459, guid: b473d4495d1f106478a985cffe19978b, type: 3}
    - {fileID: 7560400500751455271, guid: b473d4495d1f106478a985cffe19978b, type: 3}
    - {fileID: -910413791694232859, guid: b473d4495d1f106478a985cffe19978b, type: 3}
    - {fileID: -910413791694232859, guid: b473d4495d1f106478a985cffe19978b, type: 3}
  m_AnimationClipSettings:
    serializedVersion: 2
    m_AdditiveReferencePoseClip: {fileID: 0}
    m_AdditiveReferencePoseTime: 0
    m_StartTime: 0
    m_StopTime: 0.73
    m_OrientationOffsetY: 0
    m_Level: 0
    m_CycleOffset: 0
    m_HasAdditiveReferencePose: 0
    m_LoopTime: 1
    m_LoopBlend: 0
    m_LoopBlendOrientation: 0
    m_LoopBlendPositionY: 0
    m_LoopBlendPositionXZ: 0
    m_KeepOriginalOrientation: 0
    m_KeepOriginalPositionY: 1
    m_KeepOriginalPositionXZ: 0
    m_HeightFromFeet: 0
    m_Mirror: 0
  m_EditorCurves: []
  m_EulerEditorCurves: []
  m_HasGenericRootTransform: 0
  m_HasMotionFloatCurves: 0
  m_Events: []
