%YAML 1.1
%TAG !u! tag:unity3d.com,2011:
--- !u!74 &7400000
AnimationClip:
  m_ObjectHideFlags: 0
  m_CorrespondingSourceObject: {fileID: 0}
  m_PrefabInstance: {fileID: 0}
  m_PrefabAsset: {fileID: 0}
  m_Name: a_Worker_Crystal_UI
  serializedVersion: 6
  m_Legacy: 0
  m_Compressed: 0
  m_UseHighQualityCurve: 1
  m_RotationCurves: []
  m_CompressedRotationCurves: []
  m_EulerCurves: []
  m_PositionCurves: []
  m_ScaleCurves: []
  m_FloatCurves: []
  m_PPtrCurves:
  - curve:
    - time: 0
      value: {fileID: -1811054291393652501, guid: 21bc4e5605aafba4ba79c9cf04731df9, type: 3}
    - time: 0.06
      value: {fileID: -7944792786620174109, guid: 21bc4e5605aafba4ba79c9cf04731df9, type: 3}
    - time: 0.12
      value: {fileID: 7133219487045375006, guid: 21bc4e5605aafba4ba79c9cf04731df9, type: 3}
    - time: 0.18
      value: {fileID: 9215076682686166821, guid: 21bc4e5605aafba4ba79c9cf04731df9, type: 3}
    - time: 0.24
      value: {fileID: 2819756040047025043, guid: 21bc4e5605aafba4ba79c9cf04731df9, type: 3}
    - time: 0.3
      value: {fileID: 4589034012073224087, guid: 21bc4e5605aafba4ba79c9cf04731df9, type: 3}
    - time: 0.36
      value: {fileID: 8484297148724698859, guid: 21bc4e5605aafba4ba79c9cf04731df9, type: 3}
    - time: 0.42
      value: {fileID: 2184319306976790264, guid: 21bc4e5605aafba4ba79c9cf04731df9, type: 3}
    - time: 0.48
      value: {fileID: 1690449946768289686, guid: 21bc4e5605aafba4ba79c9cf04731df9, type: 3}
    - time: 0.54
      value: {fileID: 6014823224871599246, guid: 21bc4e5605aafba4ba79c9cf04731df9, type: 3}
    - time: 0.6
      value: {fileID: 9173713210980815476, guid: 21bc4e5605aafba4ba79c9cf04731df9, type: 3}
    - time: 0.66
      value: {fileID: 8667223330766088464, guid: 21bc4e5605aafba4ba79c9cf04731df9, type: 3}
    - time: 0.72
      value: {fileID: 8667223330766088464, guid: 21bc4e5605aafba4ba79c9cf04731df9, type: 3}
    attribute: m_Sprite
    path: 
    classID: 114
    script: {fileID: 11500000, guid: fe87c0e1cc204ed48ad3b37840f39efc, type: 3}
  m_SampleRate: 100
  m_WrapMode: 0
  m_Bounds:
    m_Center: {x: 0, y: 0, z: 0}
    m_Extent: {x: 0, y: 0, z: 0}
  m_ClipBindingConstant:
    genericBindings:
    - serializedVersion: 2
      path: 0
      attribute: 2015549526
      script: {fileID: 11500000, guid: fe87c0e1cc204ed48ad3b37840f39efc, type: 3}
      typeID: 114
      customType: 0
      isPPtrCurve: 1
    pptrCurveMapping:
    - {fileID: -1811054291393652501, guid: 21bc4e5605aafba4ba79c9cf04731df9, type: 3}
    - {fileID: -7944792786620174109, guid: 21bc4e5605aafba4ba79c9cf04731df9, type: 3}
    - {fileID: 7133219487045375006, guid: 21bc4e5605aafba4ba79c9cf04731df9, type: 3}
    - {fileID: 9215076682686166821, guid: 21bc4e5605aafba4ba79c9cf04731df9, type: 3}
    - {fileID: 2819756040047025043, guid: 21bc4e5605aafba4ba79c9cf04731df9, type: 3}
    - {fileID: 4589034012073224087, guid: 21bc4e5605aafba4ba79c9cf04731df9, type: 3}
    - {fileID: 8484297148724698859, guid: 21bc4e5605aafba4ba79c9cf04731df9, type: 3}
    - {fileID: 2184319306976790264, guid: 21bc4e5605aafba4ba79c9cf04731df9, type: 3}
    - {fileID: 1690449946768289686, guid: 21bc4e5605aafba4ba79c9cf04731df9, type: 3}
    - {fileID: 6014823224871599246, guid: 21bc4e5605aafba4ba79c9cf04731df9, type: 3}
    - {fileID: 9173713210980815476, guid: 21bc4e5605aafba4ba79c9cf04731df9, type: 3}
    - {fileID: 8667223330766088464, guid: 21bc4e5605aafba4ba79c9cf04731df9, type: 3}
    - {fileID: 8667223330766088464, guid: 21bc4e5605aafba4ba79c9cf04731df9, type: 3}
  m_AnimationClipSettings:
    serializedVersion: 2
    m_AdditiveReferencePoseClip: {fileID: 0}
    m_AdditiveReferencePoseTime: 0
    m_StartTime: 0
    m_StopTime: 0.73
    m_OrientationOffsetY: 0
    m_Level: 0
    m_CycleOffset: 0
    m_HasAdditiveReferencePose: 0
    m_LoopTime: 1
    m_LoopBlend: 0
    m_LoopBlendOrientation: 0
    m_LoopBlendPositionY: 0
    m_LoopBlendPositionXZ: 0
    m_KeepOriginalOrientation: 0
    m_KeepOriginalPositionY: 1
    m_KeepOriginalPositionXZ: 0
    m_HeightFromFeet: 0
    m_Mirror: 0
  m_EditorCurves: []
  m_EulerEditorCurves: []
  m_HasGenericRootTransform: 0
  m_HasMotionFloatCurves: 0
  m_Events: []
