%YAML 1.1
%TAG !u! tag:unity3d.com,2011:
--- !u!74 &7400000
AnimationClip:
  m_ObjectHideFlags: 0
  m_CorrespondingSourceObject: {fileID: 0}
  m_PrefabInstance: {fileID: 0}
  m_PrefabAsset: {fileID: 0}
  m_Name: MagicSchoolDead
  serializedVersion: 6
  m_Legacy: 0
  m_Compressed: 0
  m_UseHighQualityCurve: 1
  m_RotationCurves: []
  m_CompressedRotationCurves: []
  m_EulerCurves: []
  m_PositionCurves: []
  m_ScaleCurves: []
  m_FloatCurves: []
  m_PPtrCurves:
  - curve:
    - time: 0
      value: {fileID: 569112673282474358, guid: edf9738b9301c19498a634e70e1a0f27, type: 3}
    - time: 0.07
      value: {fileID: 968573604205329222, guid: edf9738b9301c19498a634e70e1a0f27, type: 3}
    - time: 0.14
      value: {fileID: -8370066518844694585, guid: edf9738b9301c19498a634e70e1a0f27, type: 3}
    - time: 0.21
      value: {fileID: 3782771905272073601, guid: edf9738b9301c19498a634e70e1a0f27, type: 3}
    - time: 0.28
      value: {fileID: 4762733826184968519, guid: edf9738b9301c19498a634e70e1a0f27, type: 3}
    - time: 0.35
      value: {fileID: -69955362838686429, guid: edf9738b9301c19498a634e70e1a0f27, type: 3}
    - time: 0.42
      value: {fileID: -5574578498005149093, guid: edf9738b9301c19498a634e70e1a0f27, type: 3}
    - time: 0.49
      value: {fileID: 9150865678716465796, guid: edf9738b9301c19498a634e70e1a0f27, type: 3}
    - time: 0.56
      value: {fileID: -368356974263378735, guid: edf9738b9301c19498a634e70e1a0f27, type: 3}
    - time: 0.63
      value: {fileID: 7254918058812402458, guid: edf9738b9301c19498a634e70e1a0f27, type: 3}
    - time: 0.7
      value: {fileID: 1015292948575164182, guid: edf9738b9301c19498a634e70e1a0f27, type: 3}
    attribute: m_Sprite
    path: 
    classID: 212
    script: {fileID: 0}
  m_SampleRate: 100
  m_WrapMode: 0
  m_Bounds:
    m_Center: {x: 0, y: 0, z: 0}
    m_Extent: {x: 0, y: 0, z: 0}
  m_ClipBindingConstant:
    genericBindings:
    - serializedVersion: 2
      path: 0
      attribute: 0
      script: {fileID: 0}
      typeID: 212
      customType: 23
      isPPtrCurve: 1
    pptrCurveMapping:
    - {fileID: 569112673282474358, guid: edf9738b9301c19498a634e70e1a0f27, type: 3}
    - {fileID: 968573604205329222, guid: edf9738b9301c19498a634e70e1a0f27, type: 3}
    - {fileID: -8370066518844694585, guid: edf9738b9301c19498a634e70e1a0f27, type: 3}
    - {fileID: 3782771905272073601, guid: edf9738b9301c19498a634e70e1a0f27, type: 3}
    - {fileID: 4762733826184968519, guid: edf9738b9301c19498a634e70e1a0f27, type: 3}
    - {fileID: -69955362838686429, guid: edf9738b9301c19498a634e70e1a0f27, type: 3}
    - {fileID: -5574578498005149093, guid: edf9738b9301c19498a634e70e1a0f27, type: 3}
    - {fileID: 9150865678716465796, guid: edf9738b9301c19498a634e70e1a0f27, type: 3}
    - {fileID: -368356974263378735, guid: edf9738b9301c19498a634e70e1a0f27, type: 3}
    - {fileID: 7254918058812402458, guid: edf9738b9301c19498a634e70e1a0f27, type: 3}
    - {fileID: 1015292948575164182, guid: edf9738b9301c19498a634e70e1a0f27, type: 3}
  m_AnimationClipSettings:
    serializedVersion: 2
    m_AdditiveReferencePoseClip: {fileID: 0}
    m_AdditiveReferencePoseTime: 0
    m_StartTime: 0
    m_StopTime: 0.71
    m_OrientationOffsetY: 0
    m_Level: 0
    m_CycleOffset: 0
    m_HasAdditiveReferencePose: 0
    m_LoopTime: 1
    m_LoopBlend: 0
    m_LoopBlendOrientation: 0
    m_LoopBlendPositionY: 0
    m_LoopBlendPositionXZ: 0
    m_KeepOriginalOrientation: 0
    m_KeepOriginalPositionY: 1
    m_KeepOriginalPositionXZ: 0
    m_HeightFromFeet: 0
    m_Mirror: 0
  m_EditorCurves: []
  m_EulerEditorCurves: []
  m_HasGenericRootTransform: 0
  m_HasMotionFloatCurves: 0
  m_Events: []
